﻿EffectiveDate,FareClass,FareType,PaymentType,Cost
1998-04-20,Standard,2 Sections,Cash,1
1998-04-20,Standard,2 Sections,MultiRider,8.5
1998-04-20,Standard,2 Sections,MultiRider Plus,30
1998-04-20,Standard,1 Zone,Cash,1.7
1998-04-20,Standard,1 Zone,MultiRider,14.45
1998-04-20,Standard,1 Zone,MultiRider Plus,51
1998-04-20,Standard,2 Zones,Cash,2.4
1998-04-20,Standard,2 Zones,MultiRider,20.4
1998-04-20,Standard,2 Zones,MultiRider Plus,72
1998-04-20,Standard,3 Zones,Cash,3.2
1998-04-20,Standard,3 Zones,MultiRider,27.2
1998-04-20,Standard,3 Zones,MultiRider Plus,96
1998-04-20,Standard,4 Zones,Cash,3.9
1998-04-20,Standard,4 Zones,MultiRider,33.15
1998-04-20,Standard,4 Zones,MultiRider Plus,117
1998-04-20,Standard,5 Zones,Cash,4.6
1998-04-20,Standard,5 Zones,MultiRider,39.1
1998-04-20,Standard,5 Zones,MultiRider Plus,138
1998-04-20,Standard,6 Zones,Cash,5.3
1998-04-20,Standard,6 Zones,MultiRider,45.05
1998-04-20,Standard,6 Zones,MultiRider Plus,159
1998-04-20,Standard,7 Zones,Cash,6
1998-04-20,Standard,7 Zones,MultiRider,51
1998-04-20,Standard,7 Zones,MultiRider Plus,180
1998-04-20,Standard,8 Zones,Cash,6.7
1998-04-20,Standard,8 Zones,MultiRider,56.95
1998-04-20,Standard,8 Zones,MultiRider Plus,201
1998-04-20,Standard,All Day,Cash,6.5
1998-04-20,Standard,MaxiRider,Special,6.5
1998-04-20,Standard,DayRider,Special,6.5
1998-04-20,Concession,2 Sections,Cash,0.5
1998-04-20,Concession,2 Sections,MultiRider,4.25
1998-04-20,Concession,2 Sections,MultiRider Plus,15
1998-04-20,Concession,1 Zone,Cash,0.8
1998-04-20,Concession,1 Zone,MultiRider,6.8
1998-04-20,Concession,1 Zone,MultiRider Plus,24
1998-04-20,Concession,2 Zones,Cash,1.1
1998-04-20,Concession,2 Zones,MultiRider,9.35
1998-04-20,Concession,2 Zones,MultiRider Plus,33
1998-04-20,Concession,3 Zones,Cash,1.4
1998-04-20,Concession,3 Zones,MultiRider,11.9
1998-04-20,Concession,3 Zones,MultiRider Plus,42
1998-04-20,Concession,4 Zones,Cash,1.7
1998-04-20,Concession,4 Zones,MultiRider,14.45
1998-04-20,Concession,4 Zones,MultiRider Plus,51
1998-04-20,Concession,5 Zones,Cash,1.9
1998-04-20,Concession,5 Zones,MultiRider,16.15
1998-04-20,Concession,5 Zones,MultiRider Plus,57
1998-04-20,Concession,6 Zones,Cash,2.2
1998-04-20,Concession,6 Zones,MultiRider,18.7
1998-04-20,Concession,6 Zones,MultiRider Plus,66
1998-04-20,Concession,7 Zones,Cash,2.5
1998-04-20,Concession,7 Zones,MultiRider,21.25
1998-04-20,Concession,7 Zones,MultiRider Plus,75
1998-04-20,Concession,8 Zones,Cash,2.8
1998-04-20,Concession,8 Zones,MultiRider,23.8
1998-04-20,Concession,8 Zones,MultiRider Plus,84
1998-04-20,Concession,All Day,Cash,2.8
1998-04-20,Concession,All Day,MultiRider,23.8
1998-04-20,Concession,All Day,MultiRider Plus,84
1998-04-20,Concession,DayRider,Special,2.8
2000-07-01,Standard,2 Sections,Cash,1.1
2000-07-01,Standard,2 Sections,MultiRider,9.35
2000-07-01,Standard,2 Sections,MultiRider Plus,33
2000-07-01,Standard,1 Zone,Cash,1.8
2000-07-01,Standard,1 Zone,MultiRider,15.3
2000-07-01,Standard,1 Zone,MultiRider Plus,54
2000-07-01,Standard,2 Zones,Cash,2.7
2000-07-01,Standard,2 Zones,MultiRider,22.95
2000-07-01,Standard,2 Zones,MultiRider Plus,81
2000-07-01,Standard,3 Zones,Cash,3.5
2000-07-01,Standard,3 Zones,MultiRider,29.75
2000-07-01,Standard,3 Zones,MultiRider Plus,105
2000-07-01,Standard,4 Zones,Cash,4.2
2000-07-01,Standard,4 Zones,MultiRider,35.7
2000-07-01,Standard,4 Zones,MultiRider Plus,126
2000-07-01,Standard,5 Zones,Cash,5.1
2000-07-01,Standard,5 Zones,MultiRider,43.35
2000-07-01,Standard,5 Zones,MultiRider Plus,153
2000-07-01,Standard,6 Zones,Cash,5.8
2000-07-01,Standard,6 Zones,MultiRider,49.3
2000-07-01,Standard,6 Zones,MultiRider Plus,174
2000-07-01,Standard,7 Zones,Cash,6.7
2000-07-01,Standard,7 Zones,MultiRider,56.95
2000-07-01,Standard,7 Zones,MultiRider Plus,201
2000-07-01,Standard,8 Zones,Cash,7.4
2000-07-01,Standard,8 Zones,MultiRider,62.9
2000-07-01,Standard,8 Zones,MultiRider Plus,222
2000-07-01,Standard,All Day,Cash,6.9
2000-07-01,Standard,MaxiRider,Special,6.9
2000-07-01,Standard,DayRider,Special,6.9
2000-07-01,Standard,FootyRider,Special,28.6
2000-07-01,Concession,2 Sections,Cash,0.5
2000-07-01,Concession,2 Sections,MultiRider,4.25
2000-07-01,Concession,2 Sections,MultiRider Plus,15
2000-07-01,Concession,1 Zone,Cash,0.8
2000-07-01,Concession,1 Zone,MultiRider,6.8
2000-07-01,Concession,1 Zone,MultiRider Plus,24
2000-07-01,Concession,2 Zones,Cash,1.3
2000-07-01,Concession,2 Zones,MultiRider,11.05
2000-07-01,Concession,2 Zones,MultiRider Plus,39
2000-07-01,Concession,3 Zones,Cash,1.6
2000-07-01,Concession,3 Zones,MultiRider,13.6
2000-07-01,Concession,3 Zones,MultiRider Plus,48
2000-07-01,Concession,4 Zones,Cash,1.9
2000-07-01,Concession,4 Zones,MultiRider,16.15
2000-07-01,Concession,4 Zones,MultiRider Plus,57
2000-07-01,Concession,5 Zones,Cash,2.1
2000-07-01,Concession,5 Zones,MultiRider,17.85
2000-07-01,Concession,5 Zones,MultiRider Plus,63
2000-07-01,Concession,6 Zones,Cash,2.4
2000-07-01,Concession,6 Zones,MultiRider,20.4
2000-07-01,Concession,6 Zones,MultiRider Plus,72
2000-07-01,Concession,7 Zones,Cash,2.8
2000-07-01,Concession,7 Zones,MultiRider,23.8
2000-07-01,Concession,7 Zones,MultiRider Plus,84
2000-07-01,Concession,8 Zones,Cash,3.1
2000-07-01,Concession,8 Zones,MultiRider,26.35
2000-07-01,Concession,8 Zones,MultiRider Plus,93
2000-07-01,Concession,All Day,Cash,3
2000-07-01,Concession,All Day,MultiRider,25.5
2000-07-01,Concession,All Day,MultiRider Plus,90
2000-07-01,Concession,DayRider,Special,3
2000-07-01,Concession,FootyRider,Special,13.8
2001-07-01,Standard,2 Sections,Cash,1.1
2001-07-01,Standard,2 Sections,MultiRider,9.35
2001-07-01,Standard,2 Sections,MultiRider Plus,33
2001-07-01,Standard,1 Zone,Cash,1.8
2001-07-01,Standard,1 Zone,MultiRider,15.3
2001-07-01,Standard,1 Zone,MultiRider Plus,54
2001-07-01,Standard,2 Zones,Cash,2.8
2001-07-01,Standard,2 Zones,MultiRider,23.8
2001-07-01,Standard,2 Zones,MultiRider Plus,84
2001-07-01,Standard,3 Zones,Cash,3.6
2001-07-01,Standard,3 Zones,MultiRider,30.6
2001-07-01,Standard,3 Zones,MultiRider Plus,108
2001-07-01,Standard,4 Zones,Cash,4.3
2001-07-01,Standard,4 Zones,MultiRider,36.55
2001-07-01,Standard,4 Zones,MultiRider Plus,129
2001-07-01,Standard,5 Zones,Cash,5.2
2001-07-01,Standard,5 Zones,MultiRider,44.2
2001-07-01,Standard,5 Zones,MultiRider Plus,156
2001-07-01,Standard,6 Zones,Cash,6
2001-07-01,Standard,6 Zones,MultiRider,51
2001-07-01,Standard,6 Zones,MultiRider Plus,180
2001-07-01,Standard,7 Zones,Cash,6.9
2001-07-01,Standard,7 Zones,MultiRider,58.65
2001-07-01,Standard,7 Zones,MultiRider Plus,207
2001-07-01,Standard,8 Zones,Cash,7.6
2001-07-01,Standard,8 Zones,MultiRider,64.6
2001-07-01,Standard,8 Zones,MultiRider Plus,228
2001-07-01,Standard,All Day,Cash,7.1
2001-07-01,Standard,FamilyRider,Special,7.1
2001-07-01,Standard,DayRider,Special,7.1
2001-07-01,Concession,2 Sections,Cash,0.5
2001-07-01,Concession,2 Sections,MultiRider,4.25
2001-07-01,Concession,2 Sections,MultiRider Plus,15
2001-07-01,Concession,1 Zone,Cash,0.8
2001-07-01,Concession,1 Zone,MultiRider,6.8
2001-07-01,Concession,1 Zone,MultiRider Plus,24
2001-07-01,Concession,2 Zones,Cash,1.3
2001-07-01,Concession,2 Zones,MultiRider,11.05
2001-07-01,Concession,2 Zones,MultiRider Plus,39
2001-07-01,Concession,3 Zones,Cash,1.6
2001-07-01,Concession,3 Zones,MultiRider,13.6
2001-07-01,Concession,3 Zones,MultiRider Plus,48
2001-07-01,Concession,4 Zones,Cash,1.9
2001-07-01,Concession,4 Zones,MultiRider,16.15
2001-07-01,Concession,4 Zones,MultiRider Plus,57
2001-07-01,Concession,5 Zones,Cash,2.1
2001-07-01,Concession,5 Zones,MultiRider,17.85
2001-07-01,Concession,5 Zones,MultiRider Plus,63
2001-07-01,Concession,6 Zones,Cash,2.4
2001-07-01,Concession,6 Zones,MultiRider,20.4
2001-07-01,Concession,6 Zones,MultiRider Plus,72
2001-07-01,Concession,7 Zones,Cash,2.8
2001-07-01,Concession,7 Zones,MultiRider,23.8
2001-07-01,Concession,7 Zones,MultiRider Plus,84
2001-07-01,Concession,8 Zones,Cash,3.1
2001-07-01,Concession,8 Zones,MultiRider,26.35
2001-07-01,Concession,8 Zones,MultiRider Plus,93
2001-07-01,Concession,All Day,Cash,3
2001-07-01,Concession,All Day,MultiRider,25.5
2001-07-01,Concession,All Day,MultiRider Plus,90
2001-07-01,Concession,DayRider,Special,3
2001-09-01,Standard,2 Sections,Cash,1.1
2001-09-01,Standard,2 Sections,MultiRider,9.35
2001-09-01,Standard,2 Sections,MultiRider Plus,33
2001-09-01,Standard,1 Zone,Cash,1.8
2001-09-01,Standard,1 Zone,MultiRider,15.3
2001-09-01,Standard,1 Zone,MultiRider Plus,54
2001-09-01,Standard,2 Zones,Cash,2.8
2001-09-01,Standard,2 Zones,MultiRider,23.8
2001-09-01,Standard,2 Zones,MultiRider Plus,84
2001-09-01,Standard,3 Zones,Cash,3.6
2001-09-01,Standard,3 Zones,MultiRider,30.6
2001-09-01,Standard,3 Zones,MultiRider Plus,108
2001-09-01,Standard,4 Zones,Cash,4.3
2001-09-01,Standard,4 Zones,MultiRider,36.55
2001-09-01,Standard,4 Zones,MultiRider Plus,129
2001-09-01,Standard,5 Zones,Cash,5.2
2001-09-01,Standard,5 Zones,MultiRider,44.2
2001-09-01,Standard,5 Zones,MultiRider Plus,156
2001-09-01,Standard,6 Zones,Cash,6
2001-09-01,Standard,6 Zones,MultiRider,51
2001-09-01,Standard,6 Zones,MultiRider Plus,180
2001-09-01,Standard,7 Zones,Cash,6.9
2001-09-01,Standard,7 Zones,MultiRider,58.65
2001-09-01,Standard,7 Zones,MultiRider Plus,207
2001-09-01,Standard,8 Zones,Cash,7.6
2001-09-01,Standard,8 Zones,MultiRider,64.6
2001-09-01,Standard,8 Zones,MultiRider Plus,228
2001-09-01,Standard,All Day,Cash,7.1
2001-09-01,Standard,FamilyRider,Special,7.1
2001-09-01,Standard,DayRider,Special,7.1
2001-09-01,Concession,2 Sections,Cash,0.5
2001-09-01,Concession,2 Sections,MultiRider,4.25
2001-09-01,Concession,2 Sections,MultiRider Plus,15
2001-09-01,Concession,1 Zone,Cash,0.8
2001-09-01,Concession,1 Zone,MultiRider,6.8
2001-09-01,Concession,1 Zone,MultiRider Plus,24
2001-09-01,Concession,2 Zones,Cash,1.3
2001-09-01,Concession,2 Zones,MultiRider,11.05
2001-09-01,Concession,2 Zones,MultiRider Plus,39
2001-09-01,Concession,3 Zones,Cash,1.6
2001-09-01,Concession,3 Zones,MultiRider,13.6
2001-09-01,Concession,3 Zones,MultiRider Plus,48
2001-09-01,Concession,4 Zones,Cash,1.9
2001-09-01,Concession,4 Zones,MultiRider,16.15
2001-09-01,Concession,4 Zones,MultiRider Plus,57
2001-09-01,Concession,5 Zones,Cash,2.1
2001-09-01,Concession,5 Zones,MultiRider,17.85
2001-09-01,Concession,5 Zones,MultiRider Plus,63
2001-09-01,Concession,6 Zones,Cash,2.4
2001-09-01,Concession,6 Zones,MultiRider,20.4
2001-09-01,Concession,6 Zones,MultiRider Plus,72
2001-09-01,Concession,7 Zones,Cash,2.8
2001-09-01,Concession,7 Zones,MultiRider,23.8
2001-09-01,Concession,7 Zones,MultiRider Plus,84
2001-09-01,Concession,8 Zones,Cash,3.1
2001-09-01,Concession,8 Zones,MultiRider,26.35
2001-09-01,Concession,8 Zones,MultiRider Plus,93
2001-09-01,Concession,All Day,Cash,3
2001-09-01,Concession,All Day,MultiRider,25.5
2001-09-01,Concession,All Day,MultiRider Plus,90
2001-09-01,Concession,DayRider,Special,3
2002-07-01,Standard,2 Sections,Cash,1.2
2002-07-01,Standard,2 Sections,MultiRider 10,10.2
2002-07-01,Standard,2 Sections,MultiRider 40,36
2002-07-01,Standard,1 Zone,Cash,1.9
2002-07-01,Standard,1 Zone,MultiRider 10,16.15
2002-07-01,Standard,1 Zone,MultiRider 40,57
2002-07-01,Standard,2 Zones,Cash,2.9
2002-07-01,Standard,2 Zones,MultiRider 10,24.65
2002-07-01,Standard,2 Zones,MultiRider 40,87
2002-07-01,Standard,3 Zones,Cash,3.7
2002-07-01,Standard,3 Zones,MultiRider 10,31.45
2002-07-01,Standard,3 Zones,MultiRider 40,111
2002-07-01,Standard,4 Zones,Cash,4.4
2002-07-01,Standard,4 Zones,MultiRider 10,37.4
2002-07-01,Standard,4 Zones,MultiRider 40,132
2002-07-01,Standard,5 Zones,Cash,5.3
2002-07-01,Standard,5 Zones,MultiRider 10,45.05
2002-07-01,Standard,5 Zones,MultiRider 40,159
2002-07-01,Standard,6 Zones,Cash,6.2
2002-07-01,Standard,6 Zones,MultiRider 10,52.7
2002-07-01,Standard,6 Zones,MultiRider 40,186
2002-07-01,Standard,7 Zones,Cash,7.1
2002-07-01,Standard,7 Zones,MultiRider 10,60.35
2002-07-01,Standard,7 Zones,MultiRider 40,213
2002-07-01,Standard,8 Zones,Cash,7.8
2002-07-01,Standard,8 Zones,MultiRider 10,66.3
2002-07-01,Standard,8 Zones,MultiRider 40,234
2002-07-01,Standard,FamilyRider,Cash,7.3
2002-07-01,Standard,DayRider,Cash,7.3
2002-07-01,Concession,2 Sections,Cash,0.5
2002-07-01,Concession,2 Sections,MultiRider 10,4.25
2002-07-01,Concession,2 Sections,MultiRider 40,15
2002-07-01,Concession,1 Zone,Cash,0.8
2002-07-01,Concession,1 Zone,MultiRider 10,6.8
2002-07-01,Concession,1 Zone,MultiRider 40,24
2002-07-01,Concession,2 Zones,Cash,1.3
2002-07-01,Concession,2 Zones,MultiRider 10,11.05
2002-07-01,Concession,2 Zones,MultiRider 40,39
2002-07-01,Concession,3 Zones,Cash,1.6
2002-07-01,Concession,3 Zones,MultiRider 10,13.6
2002-07-01,Concession,3 Zones,MultiRider 40,48
2002-07-01,Concession,4 Zones,Cash,1.9
2002-07-01,Concession,4 Zones,MultiRider 10,16.15
2002-07-01,Concession,4 Zones,MultiRider 40,57
2002-07-01,Concession,5 Zones,Cash,2.1
2002-07-01,Concession,5 Zones,MultiRider 10,17.85
2002-07-01,Concession,5 Zones,MultiRider 40,63
2002-07-01,Concession,6 Zones,Cash,2.4
2002-07-01,Concession,6 Zones,MultiRider 10,20.4
2002-07-01,Concession,6 Zones,MultiRider 40,72
2002-07-01,Concession,7 Zones,Cash,2.8
2002-07-01,Concession,7 Zones,MultiRider 10,23.8
2002-07-01,Concession,7 Zones,MultiRider 40,84
2002-07-01,Concession,8 Zones,Cash,3.1
2002-07-01,Concession,8 Zones,MultiRider 10,26.35
2002-07-01,Concession,8 Zones,MultiRider 40,93
2002-07-01,Concession,DayRider,Cash,3
2002-07-01,Concession,DayRider,MultiRider 10,25.5
2002-07-01,Concession,DayRider,MultiRider 40,90
2003-07-07,Standard,2 Sections,Cash,1.3
2003-07-07,Standard,2 Sections,MultiRider 10,11.05
2003-07-07,Standard,2 Sections,MultiRider 40,39
2003-07-07,Standard,1 Zone,Cash,2
2003-07-07,Standard,1 Zone,MultiRider 10,17
2003-07-07,Standard,1 Zone,MultiRider 40,60
2003-07-07,Standard,2 Zones,Cash,3
2003-07-07,Standard,2 Zones,MultiRider 10,25.5
2003-07-07,Standard,2 Zones,MultiRider 40,90
2003-07-07,Standard,3 Zones,Cash,3.8
2003-07-07,Standard,3 Zones,MultiRider 10,32.3
2003-07-07,Standard,3 Zones,MultiRider 40,114
2003-07-07,Standard,4 Zones,Cash,4.5
2003-07-07,Standard,4 Zones,MultiRider 10,38.25
2003-07-07,Standard,4 Zones,MultiRider 40,135
2003-07-07,Standard,5 Zones,Cash,5.5
2003-07-07,Standard,5 Zones,MultiRider 10,46.75
2003-07-07,Standard,5 Zones,MultiRider 40,165
2003-07-07,Standard,6 Zones,Cash,6.4
2003-07-07,Standard,6 Zones,MultiRider 10,54.4
2003-07-07,Standard,6 Zones,MultiRider 40,192
2003-07-07,Standard,7 Zones,Cash,7.3
2003-07-07,Standard,7 Zones,MultiRider 10,62.05
2003-07-07,Standard,7 Zones,MultiRider 40,219
2003-07-07,Standard,8 Zones,Cash,8
2003-07-07,Standard,8 Zones,MultiRider 10,68
2003-07-07,Standard,8 Zones,MultiRider 40,240
2003-07-07,Standard,FamilyRider,Cash,7.5
2003-07-07,Standard,DayRider,Cash,7.5
2003-07-07,Concession,2 Sections,Cash,0.5
2003-07-07,Concession,2 Sections,MultiRider 10,4.25
2003-07-07,Concession,2 Sections,MultiRider 40,15
2003-07-07,Concession,1 Zone,Cash,0.8
2003-07-07,Concession,1 Zone,MultiRider 10,6.8
2003-07-07,Concession,1 Zone,MultiRider 40,24
2003-07-07,Concession,2 Zones,Cash,1.3
2003-07-07,Concession,2 Zones,MultiRider 10,11.05
2003-07-07,Concession,2 Zones,MultiRider 40,39
2003-07-07,Concession,3 Zones,Cash,1.6
2003-07-07,Concession,3 Zones,MultiRider 10,13.6
2003-07-07,Concession,3 Zones,MultiRider 40,48
2003-07-07,Concession,4 Zones,Cash,1.9
2003-07-07,Concession,4 Zones,MultiRider 10,16.15
2003-07-07,Concession,4 Zones,MultiRider 40,57
2003-07-07,Concession,5 Zones,Cash,2.1
2003-07-07,Concession,5 Zones,MultiRider 10,17.85
2003-07-07,Concession,5 Zones,MultiRider 40,63
2003-07-07,Concession,6 Zones,Cash,2.4
2003-07-07,Concession,6 Zones,MultiRider 10,20.4
2003-07-07,Concession,6 Zones,MultiRider 40,72
2003-07-07,Concession,7 Zones,Cash,2.8
2003-07-07,Concession,7 Zones,MultiRider 10,23.8
2003-07-07,Concession,7 Zones,MultiRider 40,84
2003-07-07,Concession,8 Zones,Cash,3.1
2003-07-07,Concession,8 Zones,MultiRider 10,26.35
2003-07-07,Concession,8 Zones,MultiRider 40,93
2003-07-07,Concession,DayRider,Cash,3
2003-07-07,Concession,DayRider,MultiRider 10,25.5
2003-07-07,Concession,DayRider,MultiRider 40,90
2004-07-01,Standard,2 Sections,Cash,1.3
2004-07-01,Standard,2 Sections,MultiRider 10,11.05
2004-07-01,Standard,2 Sections,MultiRider 40,39
2004-07-01,Standard,1 Zone,Cash,2
2004-07-01,Standard,1 Zone,MultiRider 10,17
2004-07-01,Standard,1 Zone,MultiRider 40,60
2004-07-01,Standard,2 Zones,Cash,3
2004-07-01,Standard,2 Zones,MultiRider 10,25.5
2004-07-01,Standard,2 Zones,MultiRider 40,90
2004-07-01,Standard,3 Zones,Cash,3.8
2004-07-01,Standard,3 Zones,MultiRider 10,32.3
2004-07-01,Standard,3 Zones,MultiRider 40,114
2004-07-01,Standard,4 Zones,Cash,4.5
2004-07-01,Standard,4 Zones,MultiRider 10,38.25
2004-07-01,Standard,4 Zones,MultiRider 40,135
2004-07-01,Standard,5 Zones,Cash,5.5
2004-07-01,Standard,5 Zones,MultiRider 10,46.75
2004-07-01,Standard,5 Zones,MultiRider 40,165
2004-07-01,Standard,6 Zones,Cash,6.4
2004-07-01,Standard,6 Zones,MultiRider 10,54.4
2004-07-01,Standard,6 Zones,MultiRider 40,192
2004-07-01,Standard,7 Zones,Cash,7.3
2004-07-01,Standard,7 Zones,MultiRider 10,62.05
2004-07-01,Standard,7 Zones,MultiRider 40,219
2004-07-01,Standard,8 Zones,Cash,8
2004-07-01,Standard,8 Zones,MultiRider 10,68
2004-07-01,Standard,8 Zones,MultiRider 40,240
2004-07-01,Standard,FamilyRider,Cash,7.5
2004-07-01,Standard,DayRider,Cash,7.5
2004-07-01,Concession,2 Sections,Cash,0.5
2004-07-01,Concession,2 Sections,MultiRider 10,4.25
2004-07-01,Concession,2 Sections,MultiRider 40,15
2004-07-01,Concession,1 Zone,Cash,0.8
2004-07-01,Concession,1 Zone,MultiRider 10,6.8
2004-07-01,Concession,1 Zone,MultiRider 40,24
2004-07-01,Concession,2 Zones,Cash,1.3
2004-07-01,Concession,2 Zones,MultiRider 10,11.05
2004-07-01,Concession,2 Zones,MultiRider 40,39
2004-07-01,Concession,3 Zones,Cash,1.6
2004-07-01,Concession,3 Zones,MultiRider 10,13.6
2004-07-01,Concession,3 Zones,MultiRider 40,48
2004-07-01,Concession,4 Zones,Cash,1.9
2004-07-01,Concession,4 Zones,MultiRider 10,16.15
2004-07-01,Concession,4 Zones,MultiRider 40,57
2004-07-01,Concession,5 Zones,Cash,2.1
2004-07-01,Concession,5 Zones,MultiRider 10,17.85
2004-07-01,Concession,5 Zones,MultiRider 40,63
2004-07-01,Concession,6 Zones,Cash,2.4
2004-07-01,Concession,6 Zones,MultiRider 10,20.4
2004-07-01,Concession,6 Zones,MultiRider 40,72
2004-07-01,Concession,7 Zones,Cash,2.8
2004-07-01,Concession,7 Zones,MultiRider 10,23.8
2004-07-01,Concession,7 Zones,MultiRider 40,84
2004-07-01,Concession,8 Zones,Cash,3.1
2004-07-01,Concession,8 Zones,MultiRider 10,26.35
2004-07-01,Concession,8 Zones,MultiRider 40,93
2004-07-01,Concession,DayRider,Cash,3
2004-07-01,Concession,DayRider,MultiRider 10,25.5
2004-07-01,Concession,DayRider,MultiRider 40,90
2005-07-03,Standard,2 Sections,Cash,1.3
2005-07-03,Standard,2 Sections,MultiRider 10,11.05
2005-07-03,Standard,2 Sections,MultiRider 40,39
2005-07-03,Standard,1 Zone,Cash,2
2005-07-03,Standard,1 Zone,MultiRider 10,17
2005-07-03,Standard,1 Zone,MultiRider 40,60
2005-07-03,Standard,2 Zones,Cash,3.1
2005-07-03,Standard,2 Zones,MultiRider 10,26.35
2005-07-03,Standard,2 Zones,MultiRider 40,93
2005-07-03,Standard,3 Zones,Cash,3.9
2005-07-03,Standard,3 Zones,MultiRider 10,33.15
2005-07-03,Standard,3 Zones,MultiRider 40,117
2005-07-03,Standard,4 Zones,Cash,4.6
2005-07-03,Standard,4 Zones,MultiRider 10,39.1
2005-07-03,Standard,4 Zones,MultiRider 40,138
2005-07-03,Standard,5 Zones,Cash,5.6
2005-07-03,Standard,5 Zones,MultiRider 10,47.6
2005-07-03,Standard,5 Zones,MultiRider 40,168
2005-07-03,Standard,6 Zones,Cash,6.5
2005-07-03,Standard,6 Zones,MultiRider 10,55.25
2005-07-03,Standard,6 Zones,MultiRider 40,195
2005-07-03,Standard,7 Zones,Cash,7.4
2005-07-03,Standard,7 Zones,MultiRider 10,62.9
2005-07-03,Standard,7 Zones,MultiRider 40,222
2005-07-03,Standard,8/9 Zones,Cash,8.1
2005-07-03,Standard,8/9 Zones,MultiRider 10,68.85
2005-07-03,Standard,8/9 Zones,MultiRider 40,243
2005-07-03,Standard,FamilyRider,Cash,7.6
2005-07-03,Standard,DayRider,Cash,7.6
2005-07-03,Concession,2 Sections,Cash,0.5
2005-07-03,Concession,2 Sections,MultiRider 10,4.25
2005-07-03,Concession,2 Sections,MultiRider 40,15
2005-07-03,Concession,1 Zone,Cash,0.8
2005-07-03,Concession,1 Zone,MultiRider 10,6.8
2005-07-03,Concession,1 Zone,MultiRider 40,24
2005-07-03,Concession,2 Zones,Cash,1.3
2005-07-03,Concession,2 Zones,MultiRider 10,11.05
2005-07-03,Concession,2 Zones,MultiRider 40,39
2005-07-03,Concession,3 Zones,Cash,1.6
2005-07-03,Concession,3 Zones,MultiRider 10,13.6
2005-07-03,Concession,3 Zones,MultiRider 40,48
2005-07-03,Concession,4 Zones,Cash,1.9
2005-07-03,Concession,4 Zones,MultiRider 10,16.15
2005-07-03,Concession,4 Zones,MultiRider 40,57
2005-07-03,Concession,5 Zones,Cash,2.2
2005-07-03,Concession,5 Zones,MultiRider 10,18.7
2005-07-03,Concession,5 Zones,MultiRider 40,66
2005-07-03,Concession,6 Zones,Cash,2.5
2005-07-03,Concession,6 Zones,MultiRider 10,21.25
2005-07-03,Concession,6 Zones,MultiRider 40,75
2005-07-03,Concession,7 Zones,Cash,2.9
2005-07-03,Concession,7 Zones,MultiRider 10,24.65
2005-07-03,Concession,7 Zones,MultiRider 40,87
2005-07-03,Concession,8/9 Zones,Cash,3.2
2005-07-03,Concession,8/9 Zones,MultiRider 10,27.2
2005-07-03,Concession,8/9 Zones,MultiRider 40,96
2005-07-03,Concession,DayRider,Cash,3.1
2005-07-03,Concession,DayRider,MultiRider 10,26.35
2005-07-03,Concession,DayRider,MultiRider 40,93
2006-07-01,Standard,2 Sections,Cash,1.4
2006-07-01,Standard,2 Sections,MultiRider 10,11.9
2006-07-01,Standard,2 Sections,MultiRider 40,42
2006-07-01,Standard,2 Sections,SmartRider (15% Discount),1.19
2006-07-01,Standard,2 Sections,SmartRider (25% Discount),1.05
2006-07-01,Standard,1 Zone,Cash,2.1
2006-07-01,Standard,1 Zone,MultiRider 10,17.85
2006-07-01,Standard,1 Zone,MultiRider 40,63
2006-07-01,Standard,1 Zone,SmartRider (15% Discount),1.79
2006-07-01,Standard,1 Zone,SmartRider (25% Discount),1.58
2006-07-01,Standard,2 Zones,Cash,3.2
2006-07-01,Standard,2 Zones,MultiRider 10,27.2
2006-07-01,Standard,2 Zones,MultiRider 40,96
2006-07-01,Standard,2 Zones,SmartRider (15% Discount),2.72
2006-07-01,Standard,2 Zones,SmartRider (25% Discount),2.4
2006-07-01,Standard,3 Zones,Cash,4
2006-07-01,Standard,3 Zones,MultiRider 10,34
2006-07-01,Standard,3 Zones,MultiRider 40,120
2006-07-01,Standard,3 Zones,SmartRider (15% Discount),3.4
2006-07-01,Standard,3 Zones,SmartRider (25% Discount),3
2006-07-01,Standard,4 Zones,Cash,4.7
2006-07-01,Standard,4 Zones,MultiRider 10,39.95
2006-07-01,Standard,4 Zones,MultiRider 40,141
2006-07-01,Standard,4 Zones,SmartRider (15% Discount),4
2006-07-01,Standard,4 Zones,SmartRider (25% Discount),3.53
2006-07-01,Standard,5 Zones,Cash,5.7
2006-07-01,Standard,5 Zones,MultiRider 10,48.45
2006-07-01,Standard,5 Zones,MultiRider 40,171
2006-07-01,Standard,5 Zones,SmartRider (15% Discount),4.85
2006-07-01,Standard,5 Zones,SmartRider (25% Discount),4.28
2006-07-01,Standard,6 Zones,Cash,6.6
2006-07-01,Standard,6 Zones,MultiRider 10,56.1
2006-07-01,Standard,6 Zones,MultiRider 40,198
2006-07-01,Standard,6 Zones,SmartRider (15% Discount),5.61
2006-07-01,Standard,6 Zones,SmartRider (25% Discount),4.95
2006-07-01,Standard,7 Zones,Cash,7.5
2006-07-01,Standard,7 Zones,MultiRider 10,63.75
2006-07-01,Standard,7 Zones,MultiRider 40,225
2006-07-01,Standard,7 Zones,SmartRider (15% Discount),6.38
2006-07-01,Standard,7 Zones,SmartRider (25% Discount),5.63
2006-07-01,Standard,8 Zones,Cash,8.2
2006-07-01,Standard,8 Zones,MultiRider 10,69.7
2006-07-01,Standard,8 Zones,MultiRider 40,246
2006-07-01,Standard,8 Zones,SmartRider (15% Discount),6.97
2006-07-01,Standard,8 Zones,SmartRider (25% Discount),6.15
2006-07-01,Standard,DayRider,Cash,7.7
2006-07-01,Standard,FamilyRider,Cash,7.7
2006-07-01,Concession,2 Sections,Cash,0.6
2006-07-01,Concession,2 Sections,MultiRider 10,5.1
2006-07-01,Concession,2 Sections,MultiRider 40,18
2006-07-01,Concession,2 Sections,SmartRider (15% Discount),0.51
2006-07-01,Concession,2 Sections,SmartRider (25% Discount),0.45
2006-07-01,Concession,1 Zone,Cash,0.9
2006-07-01,Concession,1 Zone,MultiRider 10,7.85
2006-07-01,Concession,1 Zone,MultiRider 40,27
2006-07-01,Concession,1 Zone,SmartRider (15% Discount),0.77
2006-07-01,Concession,1 Zone,SmartRider (25% Discount),0.68
2006-07-01,Concession,2 Zones,Cash,1.3
2006-07-01,Concession,2 Zones,MultiRider 10,11.05
2006-07-01,Concession,2 Zones,MultiRider 40,39
2006-07-01,Concession,2 Zones,SmartRider (15% Discount),1.11
2006-07-01,Concession,2 Zones,SmartRider (25% Discount),0.98
2006-07-01,Concession,3 Zones,Cash,1.6
2006-07-01,Concession,3 Zones,MultiRider 10,13.6
2006-07-01,Concession,3 Zones,MultiRider 40,48
2006-07-01,Concession,3 Zones,SmartRider (15% Discount),1.36
2006-07-01,Concession,3 Zones,SmartRider (25% Discount),1.2
2006-07-01,Concession,4 Zones,Cash,1.9
2006-07-01,Concession,4 Zones,MultiRider 10,16.15
2006-07-01,Concession,4 Zones,MultiRider 40,57
2006-07-01,Concession,4 Zones,SmartRider (15% Discount),1.62
2006-07-01,Concession,4 Zones,SmartRider (25% Discount),1.43
2006-07-01,Concession,5 Zones,Cash,2.2
2006-07-01,Concession,5 Zones,MultiRider 10,18.7
2006-07-01,Concession,5 Zones,MultiRider 40,66
2006-07-01,Concession,5 Zones,SmartRider (15% Discount),1.87
2006-07-01,Concession,5 Zones,SmartRider (25% Discount),1.65
2006-07-01,Concession,6 Zones,Cash,2.5
2006-07-01,Concession,6 Zones,MultiRider 10,21.25
2006-07-01,Concession,6 Zones,MultiRider 40,75
2006-07-01,Concession,6 Zones,SmartRider (15% Discount),2.13
2006-07-01,Concession,6 Zones,SmartRider (25% Discount),1.88
2006-07-01,Concession,7 Zones,Cash,2.9
2006-07-01,Concession,7 Zones,MultiRider 10,24.65
2006-07-01,Concession,7 Zones,MultiRider 40,87
2006-07-01,Concession,7 Zones,SmartRider (15% Discount),2.47
2006-07-01,Concession,7 Zones,SmartRider (25% Discount),2.18
2006-07-01,Concession,8 Zones,Cash,3.2
2006-07-01,Concession,8 Zones,MultiRider 10,27.2
2006-07-01,Concession,8 Zones,MultiRider 40,96
2006-07-01,Concession,8 Zones,SmartRider (15% Discount),2.72
2006-07-01,Concession,8 Zones,SmartRider (25% Discount),2.4
2006-07-01,Concession,DayRider,Cash,3.1
2006-07-01,Concession,DayRider,MultiRider 10,26.35
2006-07-01,Concession,DayRider,MultiRider 40,93
2006-07-01,Concession,DayRider,SmartRider (15% Discount),2.64
2006-07-01,Concession,DayRider,SmartRider (25% Discount),2.33
2006-07-01,Student,Student,MultiRider 10,5
2006-07-01,Student,Student,MultiRider 40,20
2006-07-01,Student,Student,SmartRider,0.5
2007-07-01,Standard,2 Sections,Cash,1.5
2007-07-01,Standard,2 Sections,SmartRider (15% Discount),1.28
2007-07-01,Standard,2 Sections,SmartRider (25% Discount),1.13
2007-07-01,Standard,1 Zone,Cash,2.2
2007-07-01,Standard,1 Zone,SmartRider (15% Discount),1.87
2007-07-01,Standard,1 Zone,SmartRider (25% Discount),1.65
2007-07-01,Standard,2 Zones,Cash,3.4
2007-07-01,Standard,2 Zones,SmartRider (15% Discount),2.89
2007-07-01,Standard,2 Zones,SmartRider (25% Discount),2.55
2007-07-01,Standard,3 Zones,Cash,4.2
2007-07-01,Standard,3 Zones,SmartRider (15% Discount),3.57
2007-07-01,Standard,3 Zones,SmartRider (25% Discount),3.15
2007-07-01,Standard,4 Zones,Cash,4.9
2007-07-01,Standard,4 Zones,SmartRider (15% Discount),4.17
2007-07-01,Standard,4 Zones,SmartRider (25% Discount),3.68
2007-07-01,Standard,5 Zones,Cash,6
2007-07-01,Standard,5 Zones,SmartRider (15% Discount),5.1
2007-07-01,Standard,5 Zones,SmartRider (25% Discount),4.5
2007-07-01,Standard,6 Zones,Cash,6.9
2007-07-01,Standard,6 Zones,SmartRider (15% Discount),5.87
2007-07-01,Standard,6 Zones,SmartRider (25% Discount),5.18
2007-07-01,Standard,7 Zones,Cash,7.9
2007-07-01,Standard,7 Zones,SmartRider (15% Discount),6.72
2007-07-01,Standard,7 Zones,SmartRider (25% Discount),5.93
2007-07-01,Standard,8 Zones,Cash,8.6
2007-07-01,Standard,8 Zones,SmartRider (15% Discount),7.31
2007-07-01,Standard,8 Zones,SmartRider (25% Discount),6.45
2007-07-01,Standard,9 Zones,Cash,9.3
2007-07-01,Standard,9 Zones,SmartRider (15% Discount),7.91
2007-07-01,Standard,9 Zones,SmartRider (25% Discount),6.98
2007-07-01,Standard,DayRider,Cash,8.1
2007-07-01,Standard,DayRider,SmartRider (15% Discount),8.1
2007-07-01,Standard,DayRider,SmartRider (25% Discount),8.1
2007-07-01,Standard,FamilyRider,Cash,8.1
2007-07-01,Concession,2 Sections,Cash,0.6
2007-07-01,Concession,2 Sections,SmartRider (15% Discount),0.51
2007-07-01,Concession,2 Sections,SmartRider (25% Discount),0.45
2007-07-01,Concession,1 Zone,Cash,0.9
2007-07-01,Concession,1 Zone,SmartRider (15% Discount),0.77
2007-07-01,Concession,1 Zone,SmartRider (25% Discount),0.68
2007-07-01,Concession,2 Zones,Cash,1.4
2007-07-01,Concession,2 Zones,SmartRider (15% Discount),1.19
2007-07-01,Concession,2 Zones,SmartRider (25% Discount),1.05
2007-07-01,Concession,3 Zones,Cash,1.7
2007-07-01,Concession,3 Zones,SmartRider (15% Discount),1.45
2007-07-01,Concession,3 Zones,SmartRider (25% Discount),1.28
2007-07-01,Concession,4 Zones,Cash,2
2007-07-01,Concession,4 Zones,SmartRider (15% Discount),1.7
2007-07-01,Concession,4 Zones,SmartRider (25% Discount),1.5
2007-07-01,Concession,5 Zones,Cash,2.3
2007-07-01,Concession,5 Zones,SmartRider (15% Discount),1.96
2007-07-01,Concession,5 Zones,SmartRider (25% Discount),1.73
2007-07-01,Concession,6 Zones,Cash,2.6
2007-07-01,Concession,6 Zones,SmartRider (15% Discount),2.21
2007-07-01,Concession,6 Zones,SmartRider (25% Discount),1.95
2007-07-01,Concession,7 Zones,Cash,3
2007-07-01,Concession,7 Zones,SmartRider (15% Discount),2.55
2007-07-01,Concession,7 Zones,SmartRider (25% Discount),2.25
2007-07-01,Concession,8 Zones,Cash,3.4
2007-07-01,Concession,8 Zones,SmartRider (15% Discount),2.89
2007-07-01,Concession,8 Zones,SmartRider (25% Discount),2.55
2007-07-01,Concession,9 Zones,Cash,3.8
2007-07-01,Concession,9 Zones,SmartRider (15% Discount),3.23
2007-07-01,Concession,9 Zones,SmartRider (25% Discount),2.85
2007-07-01,Concession,DayRider,Cash,3.2
2007-07-01,Concession,DayRider,SmartRider (15% Discount),2.72
2007-07-01,Concession,DayRider,SmartRider (25% Discount),2.4
2007-07-01,Student,Student,SmartRider,0.5
2008-07-01,Standard,2 Sections,Cash,1.6
2008-07-01,Standard,2 Sections,SmartRider (15% Discount),1.36
2008-07-01,Standard,2 Sections,SmartRider (25% Discount),1.2
2008-07-01,Standard,1 Zone,Cash,2.3
2008-07-01,Standard,1 Zone,SmartRider (15% Discount),1.96
2008-07-01,Standard,1 Zone,SmartRider (25% Discount),1.73
2008-07-01,Standard,2 Zones,Cash,3.5
2008-07-01,Standard,2 Zones,SmartRider (15% Discount),2.98
2008-07-01,Standard,2 Zones,SmartRider (25% Discount),2.63
2008-07-01,Standard,3 Zones,Cash,4.3
2008-07-01,Standard,3 Zones,SmartRider (15% Discount),3.66
2008-07-01,Standard,3 Zones,SmartRider (25% Discount),3.23
2008-07-01,Standard,4 Zones,Cash,5.1
2008-07-01,Standard,4 Zones,SmartRider (15% Discount),4.34
2008-07-01,Standard,4 Zones,SmartRider (25% Discount),3.83
2008-07-01,Standard,5 Zones,Cash,6.2
2008-07-01,Standard,5 Zones,SmartRider (15% Discount),5.27
2008-07-01,Standard,5 Zones,SmartRider (25% Discount),4.65
2008-07-01,Standard,6 Zones,Cash,7.1
2008-07-01,Standard,6 Zones,SmartRider (15% Discount),6.04
2008-07-01,Standard,6 Zones,SmartRider (25% Discount),5.33
2008-07-01,Standard,7 Zones,Cash,8.2
2008-07-01,Standard,7 Zones,SmartRider (15% Discount),6.97
2008-07-01,Standard,7 Zones,SmartRider (25% Discount),6.15
2008-07-01,Standard,8 Zones,Cash,8.9
2008-07-01,Standard,8 Zones,SmartRider (15% Discount),7.57
2008-07-01,Standard,8 Zones,SmartRider (25% Discount),6.68
2008-07-01,Standard,9 Zones,Cash,9.6
2008-07-01,Standard,9 Zones,SmartRider (15% Discount),8.16
2008-07-01,Standard,9 Zones,SmartRider (25% Discount),7.2
2008-07-01,Standard,DayRider,Cash,8.4
2008-07-01,Standard,FamilyRider,Cash,8.4
2008-07-01,Concession,2 Sections,Cash,0.6
2008-07-01,Concession,2 Sections,SmartRider (15% Discount),0.51
2008-07-01,Concession,2 Sections,SmartRider (25% Discount),0.45
2008-07-01,Concession,1 Zone,Cash,0.9
2008-07-01,Concession,1 Zone,SmartRider (15% Discount),0.77
2008-07-01,Concession,1 Zone,SmartRider (25% Discount),0.68
2008-07-01,Concession,2 Zones,Cash,1.4
2008-07-01,Concession,2 Zones,SmartRider (15% Discount),1.19
2008-07-01,Concession,2 Zones,SmartRider (25% Discount),1.05
2008-07-01,Concession,3 Zones,Cash,1.8
2008-07-01,Concession,3 Zones,SmartRider (15% Discount),1.53
2008-07-01,Concession,3 Zones,SmartRider (25% Discount),1.35
2008-07-01,Concession,4 Zones,Cash,2.1
2008-07-01,Concession,4 Zones,SmartRider (15% Discount),1.79
2008-07-01,Concession,4 Zones,SmartRider (25% Discount),1.58
2008-07-01,Concession,5 Zones,Cash,2.4
2008-07-01,Concession,5 Zones,SmartRider (15% Discount),2.04
2008-07-01,Concession,5 Zones,SmartRider (25% Discount),1.8
2008-07-01,Concession,6 Zones,Cash,2.7
2008-07-01,Concession,6 Zones,SmartRider (15% Discount),2.3
2008-07-01,Concession,6 Zones,SmartRider (25% Discount),2.03
2008-07-01,Concession,7 Zones,Cash,3.1
2008-07-01,Concession,7 Zones,SmartRider (15% Discount),2.64
2008-07-01,Concession,7 Zones,SmartRider (25% Discount),2.33
2008-07-01,Concession,8 Zones,Cash,3.5
2008-07-01,Concession,8 Zones,SmartRider (15% Discount),2.98
2008-07-01,Concession,8 Zones,SmartRider (25% Discount),2.63
2008-07-01,Concession,9 Zones,Cash,3.9
2008-07-01,Concession,9 Zones,SmartRider (15% Discount),3.32
2008-07-01,Concession,9 Zones,SmartRider (25% Discount),2.93
2008-07-01,Concession,DayRider,Cash,3.3
2008-07-01,Concession,DayRider,SmartRider (15% Discount),2.81
2008-07-01,Concession,DayRider,SmartRider (25% Discount),2.48
2008-07-01,Student,Student,SmartRider,0.5
2009-07-01,Standard,2 Sections,Cash,1.7
2009-07-01,Standard,2 Sections,SmartRider (15% Discount),1.45
2009-07-01,Standard,2 Sections,SmartRider (25% Discount),1.28
2009-07-01,Standard,1 Zone,Cash,2.4
2009-07-01,Standard,1 Zone,SmartRider (15% Discount),2.04
2009-07-01,Standard,1 Zone,SmartRider (25% Discount),1.8
2009-07-01,Standard,2 Zones,Cash,3.6
2009-07-01,Standard,2 Zones,SmartRider (15% Discount),3.06
2009-07-01,Standard,2 Zones,SmartRider (25% Discount),2.7
2009-07-01,Standard,3 Zones,Cash,4.5
2009-07-01,Standard,3 Zones,SmartRider (15% Discount),3.83
2009-07-01,Standard,3 Zones,SmartRider (25% Discount),3.38
2009-07-01,Standard,4 Zones,Cash,5.3
2009-07-01,Standard,4 Zones,SmartRider (15% Discount),4.51
2009-07-01,Standard,4 Zones,SmartRider (25% Discount),3.98
2009-07-01,Standard,5 Zones,Cash,6.5
2009-07-01,Standard,5 Zones,SmartRider (15% Discount),5.53
2009-07-01,Standard,5 Zones,SmartRider (25% Discount),4.88
2009-07-01,Standard,6 Zones,Cash,7.4
2009-07-01,Standard,6 Zones,SmartRider (15% Discount),6.29
2009-07-01,Standard,6 Zones,SmartRider (25% Discount),5.55
2009-07-01,Standard,7 Zones,Cash,85
2009-07-01,Standard,7 Zones,SmartRider (15% Discount),7.23
2009-07-01,Standard,7 Zones,SmartRider (25% Discount),6.38
2009-07-01,Standard,8 Zones,Cash,9.3
2009-07-01,Standard,8 Zones,SmartRider (15% Discount),7.91
2009-07-01,Standard,8 Zones,SmartRider (25% Discount),6.98
2009-07-01,Standard,9 Zones,Cash,10
2009-07-01,Standard,9 Zones,SmartRider (15% Discount),8.5
2009-07-01,Standard,9 Zones,SmartRider (25% Discount),7.5
2009-07-01,Standard,DayRider,Cash,8.8
2009-07-01,Standard,FamilyRider,Cash,8.8
2009-07-01,Concession,2 Sections,Cash,0.6
2009-07-01,Concession,2 Sections,SmartRider (15% Discount),0.51
2009-07-01,Concession,2 Sections,SmartRider (25% Discount),0.45
2009-07-01,Concession,1 Zone,Cash,0.9
2009-07-01,Concession,1 Zone,SmartRider (15% Discount),0.77
2009-07-01,Concession,1 Zone,SmartRider (25% Discount),0.68
2009-07-01,Concession,2 Zones,Cash,1.4
2009-07-01,Concession,2 Zones,SmartRider (15% Discount),1.19
2009-07-01,Concession,2 Zones,SmartRider (25% Discount),1.05
2009-07-01,Concession,3 Zones,Cash,1.8
2009-07-01,Concession,3 Zones,SmartRider (15% Discount),1.53
2009-07-01,Concession,3 Zones,SmartRider (25% Discount),1.35
2009-07-01,Concession,4 Zones,Cash,2.1
2009-07-01,Concession,4 Zones,SmartRider (15% Discount),1.79
2009-07-01,Concession,4 Zones,SmartRider (25% Discount),1.58
2009-07-01,Concession,5 Zones,Cash,2.4
2009-07-01,Concession,5 Zones,SmartRider (15% Discount),2.04
2009-07-01,Concession,5 Zones,SmartRider (25% Discount),1.8
2009-07-01,Concession,6 Zones,Cash,2.7
2009-07-01,Concession,6 Zones,SmartRider (15% Discount),2.3
2009-07-01,Concession,6 Zones,SmartRider (25% Discount),2.03
2009-07-01,Concession,7 Zones,Cash,3.1
2009-07-01,Concession,7 Zones,SmartRider (15% Discount),2.64
2009-07-01,Concession,7 Zones,SmartRider (25% Discount),2.33
2009-07-01,Concession,8 Zones,Cash,3.5
2009-07-01,Concession,8 Zones,SmartRider (15% Discount),2.98
2009-07-01,Concession,8 Zones,SmartRider (25% Discount),2.63
2009-07-01,Concession,9 Zones,Cash,3.9
2009-07-01,Concession,9 Zones,SmartRider (15% Discount),3.32
2009-07-01,Concession,9 Zones,SmartRider (25% Discount),2.93
2009-07-01,Concession,DayRider,Cash,3.3
2009-07-01,Concession,DayRider,SmartRider (15% Discount),2.81
2009-07-01,Concession,DayRider,SmartRider (25% Discount),2.48
2009-07-01,Student,Student,SmartRider,0.5
2010-07-01,Standard,2 Sections,Cash,1.7
2010-07-01,Standard,2 Sections,SmartRider (15% Discount),1.45
2010-07-01,Standard,2 Sections,SmartRider (25% Discount),1.28
2010-07-01,Standard,1 Zone,Cash,2.5
2010-07-01,Standard,1 Zone,SmartRider (15% Discount),2.13
2010-07-01,Standard,1 Zone,SmartRider (25% Discount),1.88
2010-07-01,Standard,2 Zones,Cash,3.7
2010-07-01,Standard,2 Zones,SmartRider (15% Discount),3.15
2010-07-01,Standard,2 Zones,SmartRider (25% Discount),2.78
2010-07-01,Standard,3 Zones,Cash,4.6
2010-07-01,Standard,3 Zones,SmartRider (15% Discount),3.91
2010-07-01,Standard,3 Zones,SmartRider (25% Discount),3.45
2010-07-01,Standard,4 Zones,Cash,5.4
2010-07-01,Standard,4 Zones,SmartRider (15% Discount),4.59
2010-07-01,Standard,4 Zones,SmartRider (25% Discount),4.05
2010-07-01,Standard,5 Zones,Cash,6.6
2010-07-01,Standard,5 Zones,SmartRider (15% Discount),5.61
2010-07-01,Standard,5 Zones,SmartRider (25% Discount),4.95
2010-07-01,Standard,6 Zones,Cash,7.6
2010-07-01,Standard,6 Zones,SmartRider (15% Discount),6.46
2010-07-01,Standard,6 Zones,SmartRider (25% Discount),5.7
2010-07-01,Standard,7 Zones,Cash,8.7
2010-07-01,Standard,7 Zones,SmartRider (15% Discount),7.4
2010-07-01,Standard,7 Zones,SmartRider (25% Discount),6.53
2010-07-01,Standard,8 Zones,Cash,9.5
2010-07-01,Standard,8 Zones,SmartRider (15% Discount),8.08
2010-07-01,Standard,8 Zones,SmartRider (25% Discount),7.13
2010-07-01,Standard,9 Zones,Cash,10.2
2010-07-01,Standard,9 Zones,SmartRider (15% Discount),8.67
2010-07-01,Standard,9 Zones,SmartRider (25% Discount),7.65
2010-07-01,Standard,DayRider,Cash,9
2010-07-01,Standard,FamilyRider,Cash,9
2010-07-01,Concession,2 Sections,Cash,0.7
2010-07-01,Concession,2 Sections,SmartRider (15% Discount),0.6
2010-07-01,Concession,2 Sections,SmartRider (25% Discount),0.53
2010-07-01,Concession,1 Zone,Cash,1
2010-07-01,Concession,1 Zone,SmartRider (15% Discount),0.85
2010-07-01,Concession,1 Zone,SmartRider (25% Discount),0.75
2010-07-01,Concession,2 Zones,Cash,1.5
2010-07-01,Concession,2 Zones,SmartRider (15% Discount),1.28
2010-07-01,Concession,2 Zones,SmartRider (25% Discount),1.13
2010-07-01,Concession,3 Zones,Cash,1.8
2010-07-01,Concession,3 Zones,SmartRider (15% Discount),1.53
2010-07-01,Concession,3 Zones,SmartRider (25% Discount),1.35
2010-07-01,Concession,4 Zones,Cash,2.2
2010-07-01,Concession,4 Zones,SmartRider (15% Discount),1.87
2010-07-01,Concession,4 Zones,SmartRider (25% Discount),1.65
2010-07-01,Concession,5 Zones,Cash,2.6
2010-07-01,Concession,5 Zones,SmartRider (15% Discount),2.21
2010-07-01,Concession,5 Zones,SmartRider (25% Discount),1.95
2010-07-01,Concession,6 Zones,Cash,3
2010-07-01,Concession,6 Zones,SmartRider (15% Discount),2.55
2010-07-01,Concession,6 Zones,SmartRider (25% Discount),2.25
2010-07-01,Concession,7 Zones,Cash,3.5
2010-07-01,Concession,7 Zones,SmartRider (15% Discount),2.98
2010-07-01,Concession,7 Zones,SmartRider (25% Discount),2.63
2010-07-01,Concession,8 Zones,Cash,3.8
2010-07-01,Concession,8 Zones,SmartRider (15% Discount),3.23
2010-07-01,Concession,8 Zones,SmartRider (25% Discount),2.85
2010-07-01,Concession,9 Zones,Cash,4.1
2010-07-01,Concession,9 Zones,SmartRider (15% Discount),3.49
2010-07-01,Concession,9 Zones,SmartRider (25% Discount),3.08
2010-07-01,Concession,DayRider,Cash,3.6
2010-07-01,Concession,DayRider,SmartRider (15% Discount),3.06
2010-07-01,Concession,DayRider,SmartRider (25% Discount),2.7
2010-07-01,Student,Student,SmartRider,0.5
2011-07-01,Standard,2 Sections,Cash,1.8
2011-07-01,Standard,2 Sections,SmartRider (15% Discount),1.53
2011-07-01,Standard,2 Sections,SmartRider (25% Discount),1.35
2011-07-01,Standard,1 Zone,Cash,2.6
2011-07-01,Standard,1 Zone,SmartRider (15% Discount),2.21
2011-07-01,Standard,1 Zone,SmartRider (25% Discount),1.95
2011-07-01,Standard,2 Zones,Cash,3.8
2011-07-01,Standard,2 Zones,SmartRider (15% Discount),3.23
2011-07-01,Standard,2 Zones,SmartRider (25% Discount),2.85
2011-07-01,Standard,3 Zones,Cash,4.7
2011-07-01,Standard,3 Zones,SmartRider (15% Discount),4
2011-07-01,Standard,3 Zones,SmartRider (25% Discount),3.53
2011-07-01,Standard,4 Zones,Cash,5.6
2011-07-01,Standard,4 Zones,SmartRider (15% Discount),4.76
2011-07-01,Standard,4 Zones,SmartRider (25% Discount),4.2
2011-07-01,Standard,5 Zones,Cash,6.8
2011-07-01,Standard,5 Zones,SmartRider (15% Discount),5.78
2011-07-01,Standard,5 Zones,SmartRider (25% Discount),5.1
2011-07-01,Standard,6 Zones,Cash,7.8
2011-07-01,Standard,6 Zones,SmartRider (15% Discount),6.63
2011-07-01,Standard,6 Zones,SmartRider (25% Discount),5.85
2011-07-01,Standard,7 Zones,Cash,9
2011-07-01,Standard,7 Zones,SmartRider (15% Discount),7.65
2011-07-01,Standard,7 Zones,SmartRider (25% Discount),6.75
2011-07-01,Standard,8 Zones,Cash,9.8
2011-07-01,Standard,8 Zones,SmartRider (15% Discount),8.33
2011-07-01,Standard,8 Zones,SmartRider (25% Discount),7.35
2011-07-01,Standard,9 Zones,Cash,10.5
2011-07-01,Standard,9 Zones,SmartRider (15% Discount),8.93
2011-07-01,Standard,9 Zones,SmartRider (25% Discount),7.88
2011-07-01,Standard,DayRider,Cash,9.3
2011-07-01,Standard,FamilyRider,Cash,9.3
2011-07-01,Concession,2 Sections,Cash,0.7
2011-07-01,Concession,2 Sections,SmartRider (15% Discount),0.6
2011-07-01,Concession,2 Sections,SmartRider (25% Discount),0.53
2011-07-01,Concession,1 Zone,Cash,1
2011-07-01,Concession,1 Zone,SmartRider (15% Discount),0.85
2011-07-01,Concession,1 Zone,SmartRider (25% Discount),0.75
2011-07-01,Concession,2 Zones,Cash,1.5
2011-07-01,Concession,2 Zones,SmartRider (15% Discount),1.28
2011-07-01,Concession,2 Zones,SmartRider (25% Discount),1.13
2011-07-01,Concession,3 Zones,Cash,1.9
2011-07-01,Concession,3 Zones,SmartRider (15% Discount),1.62
2011-07-01,Concession,3 Zones,SmartRider (25% Discount),1.43
2011-07-01,Concession,4 Zones,Cash,2.2
2011-07-01,Concession,4 Zones,SmartRider (15% Discount),1.87
2011-07-01,Concession,4 Zones,SmartRider (25% Discount),1.65
2011-07-01,Concession,5 Zones,Cash,2.7
2011-07-01,Concession,5 Zones,SmartRider (15% Discount),2.3
2011-07-01,Concession,5 Zones,SmartRider (25% Discount),2.03
2011-07-01,Concession,6 Zones,Cash,3.1
2011-07-01,Concession,6 Zones,SmartRider (15% Discount),2.64
2011-07-01,Concession,6 Zones,SmartRider (25% Discount),2.33
2011-07-01,Concession,7 Zones,Cash,3.6
2011-07-01,Concession,7 Zones,SmartRider (15% Discount),3.06
2011-07-01,Concession,7 Zones,SmartRider (25% Discount),2.7
2011-07-01,Concession,8 Zones,Cash,3.9
2011-07-01,Concession,8 Zones,SmartRider (15% Discount),3.32
2011-07-01,Concession,8 Zones,SmartRider (25% Discount),2.93
2011-07-01,Concession,9 Zones,Cash,4.2
2011-07-01,Concession,9 Zones,SmartRider (15% Discount),3.57
2011-07-01,Concession,9 Zones,SmartRider (25% Discount),3.15
2011-07-01,Concession,DayRider,Cash,3.7
2011-07-01,Concession,DayRider,SmartRider (15% Discount),2.78
2011-07-01,Concession,DayRider,SmartRider (25% Discount),2.78
2011-07-01,Student,Student,SmartRider,0.5
2012-07-01,Standard,2 Sections,Cash,1.9
2012-07-01,Standard,2 Sections,SmartRider (15% Discount),1.62
2012-07-01,Standard,2 Sections,SmartRider (25% Discount),1.43
2012-07-01,Standard,1 Zone,Cash,2.7
2012-07-01,Standard,1 Zone,SmartRider (15% Discount),2.3
2012-07-01,Standard,1 Zone,SmartRider (25% Discount),2.03
2012-07-01,Standard,2 Zones,Cash,4
2012-07-01,Standard,2 Zones,SmartRider (15% Discount),3.4
2012-07-01,Standard,2 Zones,SmartRider (25% Discount),3
2012-07-01,Standard,3 Zones,Cash,4.9
2012-07-01,Standard,3 Zones,SmartRider (15% Discount),4.17
2012-07-01,Standard,3 Zones,SmartRider (25% Discount),3.68
2012-07-01,Standard,4 Zones,Cash,5.8
2012-07-01,Standard,4 Zones,SmartRider (15% Discount),4.93
2012-07-01,Standard,4 Zones,SmartRider (25% Discount),4.35
2012-07-01,Standard,5 Zones,Cash,7.1
2012-07-01,Standard,5 Zones,SmartRider (15% Discount),6.04
2012-07-01,Standard,5 Zones,SmartRider (25% Discount),5.33
2012-07-01,Standard,6 Zones,Cash,8.1
2012-07-01,Standard,6 Zones,SmartRider (15% Discount),6.89
2012-07-01,Standard,6 Zones,SmartRider (25% Discount),6.08
2012-07-01,Standard,7 Zones,Cash,9.4
2012-07-01,Standard,7 Zones,SmartRider (15% Discount),7.99
2012-07-01,Standard,7 Zones,SmartRider (25% Discount),7.05
2012-07-01,Standard,8 Zones,Cash,10.2
2012-07-01,Standard,8 Zones,SmartRider (15% Discount),8.67
2012-07-01,Standard,8 Zones,SmartRider (25% Discount),7.65
2012-07-01,Standard,9 Zones,Cash,11
2012-07-01,Standard,9 Zones,SmartRider (15% Discount),9.35
2012-07-01,Standard,9 Zones,SmartRider (25% Discount),8.25
2012-07-01,Standard,DayRider,Cash,11
2012-07-01,Standard,FamilyRider,Cash,11
2012-07-01,Concession,2 Sections,Cash,0.8
2012-07-01,Concession,2 Sections,SmartRider (15% Discount),0.68
2012-07-01,Concession,2 Sections,SmartRider (25% Discount),0.6
2012-07-01,Concession,1 Zone,Cash,1.1
2012-07-01,Concession,1 Zone,SmartRider (15% Discount),0.94
2012-07-01,Concession,1 Zone,SmartRider (25% Discount),0.83
2012-07-01,Concession,2 Zones,Cash,1.6
2012-07-01,Concession,2 Zones,SmartRider (15% Discount),1.36
2012-07-01,Concession,2 Zones,SmartRider (25% Discount),1.2
2012-07-01,Concession,3 Zones,Cash,2
2012-07-01,Concession,3 Zones,SmartRider (15% Discount),1.7
2012-07-01,Concession,3 Zones,SmartRider (25% Discount),1.5
2012-07-01,Concession,4 Zones,Cash,2.3
2012-07-01,Concession,4 Zones,SmartRider (15% Discount),1.96
2012-07-01,Concession,4 Zones,SmartRider (25% Discount),1.73
2012-07-01,Concession,5 Zones,Cash,2.8
2012-07-01,Concession,5 Zones,SmartRider (15% Discount),2.38
2012-07-01,Concession,5 Zones,SmartRider (25% Discount),2.1
2012-07-01,Concession,6 Zones,Cash,3.2
2012-07-01,Concession,6 Zones,SmartRider (15% Discount),2.72
2012-07-01,Concession,6 Zones,SmartRider (25% Discount),2.4
2012-07-01,Concession,7 Zones,Cash,3.8
2012-07-01,Concession,7 Zones,SmartRider (15% Discount),3.23
2012-07-01,Concession,7 Zones,SmartRider (25% Discount),2.85
2012-07-01,Concession,8 Zones,Cash,4.1
2012-07-01,Concession,8 Zones,SmartRider (15% Discount),3.49
2012-07-01,Concession,8 Zones,SmartRider (25% Discount),3.08
2012-07-01,Concession,9 Zones,Cash,4.4
2012-07-01,Concession,9 Zones,SmartRider (15% Discount),3.74
2012-07-01,Concession,9 Zones,SmartRider (25% Discount),3.3
2012-07-01,Concession,DayRider,Cash,4.4
2012-07-01,Concession,DayRider,SmartRider (15% Discount),3.3
2012-07-01,Concession,DayRider,SmartRider (25% Discount),3.3
2012-07-01,Student,Student,SmartRider,0.5
2013-07-01,Standard,2 Sections,Cash,2
2013-07-01,Standard,2 Sections,SmartRider (15% Discount),1.7
2013-07-01,Standard,2 Sections,SmartRider (25% Discount),1.5
2013-07-01,Standard,1 Zone,Cash,2.8
2013-07-01,Standard,1 Zone,SmartRider (15% Discount),2.38
2013-07-01,Standard,1 Zone,SmartRider (25% Discount),2.1
2013-07-01,Standard,2 Zones,Cash,4.2
2013-07-01,Standard,2 Zones,SmartRider (15% Discount),3.57
2013-07-01,Standard,2 Zones,SmartRider (25% Discount),3.15
2013-07-01,Standard,3 Zones,Cash,5.1
2013-07-01,Standard,3 Zones,SmartRider (15% Discount),4.34
2013-07-01,Standard,3 Zones,SmartRider (25% Discount),3.83
2013-07-01,Standard,4 Zones,Cash,6.1
2013-07-01,Standard,4 Zones,SmartRider (15% Discount),5.19
2013-07-01,Standard,4 Zones,SmartRider (25% Discount),4.58
2013-07-01,Standard,5 Zones,Cash,7.5
2013-07-01,Standard,5 Zones,SmartRider (15% Discount),6.38
2013-07-01,Standard,5 Zones,SmartRider (25% Discount),5.63
2013-07-01,Standard,6 Zones,Cash,8.5
2013-07-01,Standard,6 Zones,SmartRider (15% Discount),7.23
2013-07-01,Standard,6 Zones,SmartRider (25% Discount),6.38
2013-07-01,Standard,7 Zones,Cash,9.9
2013-07-01,Standard,7 Zones,SmartRider (15% Discount),8.42
2013-07-01,Standard,7 Zones,SmartRider (25% Discount),7.43
2013-07-01,Standard,8 Zones,Cash,10.7
2013-07-01,Standard,8 Zones,SmartRider (15% Discount),9.1
2013-07-01,Standard,8 Zones,SmartRider (25% Discount),8.03
2013-07-01,Standard,9 Zones,Cash,11.6
2013-07-01,Standard,9 Zones,SmartRider (15% Discount),9.86
2013-07-01,Standard,9 Zones,SmartRider (25% Discount),8.7
2013-07-01,Standard,DayRider,Cash,11.6
2013-07-01,Standard,FamilyRider,Cash,11.6
2013-07-01,Concession,2 Sections,Cash,0.8
2013-07-01,Concession,2 Sections,SmartRider (15% Discount),0.68
2013-07-01,Concession,2 Sections,SmartRider (25% Discount),0.6
2013-07-01,Concession,1 Zone,Cash,1.1
2013-07-01,Concession,1 Zone,SmartRider (15% Discount),0.94
2013-07-01,Concession,1 Zone,SmartRider (25% Discount),0.83
2013-07-01,Concession,2 Zones,Cash,1.7
2013-07-01,Concession,2 Zones,SmartRider (15% Discount),1.45
2013-07-01,Concession,2 Zones,SmartRider (25% Discount),1.28
2013-07-01,Concession,3 Zones,Cash,2
2013-07-01,Concession,3 Zones,SmartRider (15% Discount),1.7
2013-07-01,Concession,3 Zones,SmartRider (25% Discount),1.5
2013-07-01,Concession,4 Zones,Cash,2.4
2013-07-01,Concession,4 Zones,SmartRider (15% Discount),2.04
2013-07-01,Concession,4 Zones,SmartRider (25% Discount),1.8
2013-07-01,Concession,5 Zones,Cash,3
2013-07-01,Concession,5 Zones,SmartRider (15% Discount),2.55
2013-07-01,Concession,5 Zones,SmartRider (25% Discount),2.25
2013-07-01,Concession,6 Zones,Cash,3.4
2013-07-01,Concession,6 Zones,SmartRider (15% Discount),2.89
2013-07-01,Concession,6 Zones,SmartRider (25% Discount),2.55
2013-07-01,Concession,7 Zones,Cash,4
2013-07-01,Concession,7 Zones,SmartRider (15% Discount),3.4
2013-07-01,Concession,7 Zones,SmartRider (25% Discount),3
2013-07-01,Concession,8 Zones,Cash,4.3
2013-07-01,Concession,8 Zones,SmartRider (15% Discount),3.66
2013-07-01,Concession,8 Zones,SmartRider (25% Discount),3.23
2013-07-01,Concession,9 Zones,Cash,4.6
2013-07-01,Concession,9 Zones,SmartRider (15% Discount),3.91
2013-07-01,Concession,9 Zones,SmartRider (25% Discount),3.45
2013-07-01,Concession,DayRider,Cash,4.6
2013-07-01,Concession,DayRider,SmartRider (15% Discount),3.45
2013-07-01,Concession,DayRider,SmartRider (25% Discount),3.45
2013-07-01,Student,Student,SmartRider,0.5
2014-07-01,Standard,2 Sections,Cash,2.1
2014-07-01,Standard,2 Sections,SmartRider (15% Discount),1.79
2014-07-01,Standard,2 Sections,SmartRider (25% Discount),1.58
2014-07-01,Standard,1 Zone,Cash,2.9
2014-07-01,Standard,1 Zone,SmartRider (15% Discount),2.47
2014-07-01,Standard,1 Zone,SmartRider (25% Discount),2.18
2014-07-01,Standard,2 Zones,Cash,4.4
2014-07-01,Standard,2 Zones,SmartRider (15% Discount),3.74
2014-07-01,Standard,2 Zones,SmartRider (25% Discount),3.3
2014-07-01,Standard,3 Zones,Cash,5.3
2014-07-01,Standard,3 Zones,SmartRider (15% Discount),4.51
2014-07-01,Standard,3 Zones,SmartRider (25% Discount),3.98
2014-07-01,Standard,4 Zones,Cash,6.3
2014-07-01,Standard,4 Zones,SmartRider (15% Discount),5.36
2014-07-01,Standard,4 Zones,SmartRider (25% Discount),4.73
2014-07-01,Standard,5 Zones,Cash,7.8
2014-07-01,Standard,5 Zones,SmartRider (15% Discount),6.63
2014-07-01,Standard,5 Zones,SmartRider (25% Discount),5.85
2014-07-01,Standard,6 Zones,Cash,8.8
2014-07-01,Standard,6 Zones,SmartRider (15% Discount),7.48
2014-07-01,Standard,6 Zones,SmartRider (25% Discount),6.6
2014-07-01,Standard,7 Zones,Cash,10.3
2014-07-01,Standard,7 Zones,SmartRider (15% Discount),8.76
2014-07-01,Standard,7 Zones,SmartRider (25% Discount),7.73
2014-07-01,Standard,8 Zones,Cash,11.1
2014-07-01,Standard,8 Zones,SmartRider (15% Discount),9.44
2014-07-01,Standard,8 Zones,SmartRider (25% Discount),8.33
2014-07-01,Standard,9 Zones,Cash,12.1
2014-07-01,Standard,9 Zones,SmartRider (15% Discount),10.29
2014-07-01,Standard,9 Zones,SmartRider (25% Discount),9.08
2014-07-01,Standard,DayRider,Cash,12.1
2014-07-01,Standard,FamilyRider,Cash,12.1
2014-07-01,Concession,2 Sections,Cash,0.8
2014-07-01,Concession,2 Sections,SmartRider (15% Discount),0.68
2014-07-01,Concession,2 Sections,SmartRider (25% Discount),0.6
2014-07-01,Concession,1 Zone,Cash,1.2
2014-07-01,Concession,1 Zone,SmartRider (15% Discount),1.02
2014-07-01,Concession,1 Zone,SmartRider (25% Discount),0.9
2014-07-01,Concession,2 Zones,Cash,1.8
2014-07-01,Concession,2 Zones,SmartRider (15% Discount),1.53
2014-07-01,Concession,2 Zones,SmartRider (25% Discount),1.35
2014-07-01,Concession,3 Zones,Cash,2.1
2014-07-01,Concession,3 Zones,SmartRider (15% Discount),1.79
2014-07-01,Concession,3 Zones,SmartRider (25% Discount),1.58
2014-07-01,Concession,4 Zones,Cash,2.5
2014-07-01,Concession,4 Zones,SmartRider (15% Discount),2.13
2014-07-01,Concession,4 Zones,SmartRider (25% Discount),1.88
2014-07-01,Concession,5 Zones,Cash,3.1
2014-07-01,Concession,5 Zones,SmartRider (15% Discount),2.64
2014-07-01,Concession,5 Zones,SmartRider (25% Discount),2.33
2014-07-01,Concession,6 Zones,Cash,3.5
2014-07-01,Concession,6 Zones,SmartRider (15% Discount),2.98
2014-07-01,Concession,6 Zones,SmartRider (25% Discount),2.63
2014-07-01,Concession,7 Zones,Cash,4.1
2014-07-01,Concession,7 Zones,SmartRider (15% Discount),3.49
2014-07-01,Concession,7 Zones,SmartRider (25% Discount),3.08
2014-07-01,Concession,8 Zones,Cash,4.4
2014-07-01,Concession,8 Zones,SmartRider (15% Discount),3.74
2014-07-01,Concession,8 Zones,SmartRider (25% Discount),3.3
2014-07-01,Concession,9 Zones,Cash,4.8
2014-07-01,Concession,9 Zones,SmartRider (15% Discount),4.08
2014-07-01,Concession,9 Zones,SmartRider (25% Discount),3.6
2014-07-01,Concession,DayRider,Cash,4.8
2014-07-01,Concession,DayRider,SmartRider (15% Discount),3.6
2014-07-01,Concession,DayRider,SmartRider (25% Discount),3.6
2014-07-01,Student,Student,SmartRider,0.6
2014-11-01,Standard,2 Sections,Cash,2
2014-11-01,Standard,2 Sections,SmartRider (15% Discount),1.7
2014-11-01,Standard,2 Sections,SmartRider (25% Discount),1.5
2014-11-01,Standard,1 Zone,Cash,2.9
2014-11-01,Standard,1 Zone,SmartRider (15% Discount),2.47
2014-11-01,Standard,1 Zone,SmartRider (25% Discount),2.18
2014-11-01,Standard,2 Zones,Cash,4.4
2014-11-01,Standard,2 Zones,SmartRider (15% Discount),3.74
2014-11-01,Standard,2 Zones,SmartRider (25% Discount),3.3
2014-11-01,Standard,3 Zones,Cash,5.2
2014-11-01,Standard,3 Zones,SmartRider (15% Discount),4.42
2014-11-01,Standard,3 Zones,SmartRider (25% Discount),3.9
2014-11-01,Standard,4 Zones,Cash,6.2
2014-11-01,Standard,4 Zones,SmartRider (15% Discount),5.27
2014-11-01,Standard,4 Zones,SmartRider (25% Discount),4.65
2014-11-01,Standard,5 Zones,Cash,7.7
2014-11-01,Standard,5 Zones,SmartRider (15% Discount),6.55
2014-11-01,Standard,5 Zones,SmartRider (25% Discount),5.78
2014-11-01,Standard,6 Zones,Cash,8.7
2014-11-01,Standard,6 Zones,SmartRider (15% Discount),7.4
2014-11-01,Standard,6 Zones,SmartRider (25% Discount),6.53
2014-11-01,Standard,7 Zones,Cash,10.2
2014-11-01,Standard,7 Zones,SmartRider (15% Discount),8.67
2014-11-01,Standard,7 Zones,SmartRider (25% Discount),7.65
2014-11-01,Standard,8 Zones,Cash,11
2014-11-01,Standard,8 Zones,SmartRider (15% Discount),9.35
2014-11-01,Standard,8 Zones,SmartRider (25% Discount),8.25
2014-11-01,Standard,9 Zones,Cash,11.8
2014-11-01,Standard,9 Zones,SmartRider (15% Discount),10.03
2014-11-01,Standard,9 Zones,SmartRider (25% Discount),8.85
2014-11-01,Standard,DayRider,Cash,11.8
2014-11-01,Standard,FamilyRider,Cash,11.8
2014-11-01,Concession,2 Sections,Cash,0.8
2014-11-01,Concession,2 Sections,SmartRider (15% Discount),0.68
2014-11-01,Concession,2 Sections,SmartRider (25% Discount),0.6
2014-11-01,Concession,1 Zone,Cash,1.2
2014-11-01,Concession,1 Zone,SmartRider (15% Discount),1.02
2014-11-01,Concession,1 Zone,SmartRider (25% Discount),0.9
2014-11-01,Concession,2 Zones,Cash,1.7
2014-11-01,Concession,2 Zones,SmartRider (15% Discount),1.45
2014-11-01,Concession,2 Zones,SmartRider (25% Discount),1.28
2014-11-01,Concession,3 Zones,Cash,2.1
2014-11-01,Concession,3 Zones,SmartRider (15% Discount),1.79
2014-11-01,Concession,3 Zones,SmartRider (25% Discount),1.58
2014-11-01,Concession,4 Zones,Cash,2.5
2014-11-01,Concession,4 Zones,SmartRider (15% Discount),2.13
2014-11-01,Concession,4 Zones,SmartRider (25% Discount),1.88
2014-11-01,Concession,5 Zones,Cash,3.1
2014-11-01,Concession,5 Zones,SmartRider (15% Discount),2.64
2014-11-01,Concession,5 Zones,SmartRider (25% Discount),2.33
2014-11-01,Concession,6 Zones,Cash,3.5
2014-11-01,Concession,6 Zones,SmartRider (15% Discount),2.98
2014-11-01,Concession,6 Zones,SmartRider (25% Discount),2.63
2014-11-01,Concession,7 Zones,Cash,4.1
2014-11-01,Concession,7 Zones,SmartRider (15% Discount),3.49
2014-11-01,Concession,7 Zones,SmartRider (25% Discount),3.08
2014-11-01,Concession,8 Zones,Cash,4.4
2014-11-01,Concession,8 Zones,SmartRider (15% Discount),3.74
2014-11-01,Concession,8 Zones,SmartRider (25% Discount),3.3
2014-11-01,Concession,9 Zones,Cash,4.7
2014-11-01,Concession,9 Zones,SmartRider (15% Discount),4
2014-11-01,Concession,9 Zones,SmartRider (25% Discount),3.53
2014-11-01,Concession,DayRider,Cash,4.7
2014-11-01,Concession,DayRider,SmartRider (15% Discount),3.53
2014-11-01,Concession,DayRider,SmartRider (25% Discount),3.53
2014-11-01,Student,Student,SmartRider,0.6
2015-07-01,Standard,2 Sections,Cash,2.1
2015-07-01,Standard,2 Sections,SmartRider (15% Discount),1.79
2015-07-01,Standard,2 Sections,SmartRider (25% Discount),1.58
2015-07-01,Standard,1 Zone,Cash,3
2015-07-01,Standard,1 Zone,SmartRider (15% Discount),2.55
2015-07-01,Standard,1 Zone,SmartRider (25% Discount),2.25
2015-07-01,Standard,2 Zones,Cash,4.5
2015-07-01,Standard,2 Zones,SmartRider (15% Discount),3.83
2015-07-01,Standard,2 Zones,SmartRider (25% Discount),3.38
2015-07-01,Standard,3 Zones,Cash,5.3
2015-07-01,Standard,3 Zones,SmartRider (15% Discount),4.51
2015-07-01,Standard,3 Zones,SmartRider (25% Discount),3.98
2015-07-01,Standard,4 Zones,Cash,6.4
2015-07-01,Standard,4 Zones,SmartRider (15% Discount),5.44
2015-07-01,Standard,4 Zones,SmartRider (25% Discount),4.8
2015-07-01,Standard,5 Zones,Cash,7.9
2015-07-01,Standard,5 Zones,SmartRider (15% Discount),6.72
2015-07-01,Standard,5 Zones,SmartRider (25% Discount),5.93
2015-07-01,Standard,6 Zones,Cash,8.9
2015-07-01,Standard,6 Zones,SmartRider (15% Discount),7.57
2015-07-01,Standard,6 Zones,SmartRider (25% Discount),6.68
2015-07-01,Standard,7 Zones,Cash,10.5
2015-07-01,Standard,7 Zones,SmartRider (15% Discount),8.93
2015-07-01,Standard,7 Zones,SmartRider (25% Discount),7.88
2015-07-01,Standard,8 Zones,Cash,11.3
2015-07-01,Standard,8 Zones,SmartRider (15% Discount),9.61
2015-07-01,Standard,8 Zones,SmartRider (25% Discount),8.48
2015-07-01,Standard,9 Zones,Cash,12.1
2015-07-01,Standard,9 Zones,SmartRider (15% Discount),10.29
2015-07-01,Standard,9 Zones,SmartRider (25% Discount),9.08
2015-07-01,Standard,DayRider,Cash,12.1
2015-07-01,Standard,FamilyRider,Cash,12.1
2015-07-01,Concession,2 Sections,Cash,0.8
2015-07-01,Concession,2 Sections,SmartRider (15% Discount),0.68
2015-07-01,Concession,2 Sections,SmartRider (25% Discount),0.6
2015-07-01,Concession,1 Zone,Cash,1.2
2015-07-01,Concession,1 Zone,SmartRider (15% Discount),1.02
2015-07-01,Concession,1 Zone,SmartRider (25% Discount),0.9
2015-07-01,Concession,2 Zones,Cash,1.8
2015-07-01,Concession,2 Zones,SmartRider (15% Discount),1.53
2015-07-01,Concession,2 Zones,SmartRider (25% Discount),1.35
2015-07-01,Concession,3 Zones,Cash,2.1
2015-07-01,Concession,3 Zones,SmartRider (15% Discount),1.79
2015-07-01,Concession,3 Zones,SmartRider (25% Discount),1.58
2015-07-01,Concession,4 Zones,Cash,2.5
2015-07-01,Concession,4 Zones,SmartRider (15% Discount),2.13
2015-07-01,Concession,4 Zones,SmartRider (25% Discount),1.88
2015-07-01,Concession,5 Zones,Cash,3.2
2015-07-01,Concession,5 Zones,SmartRider (15% Discount),2.72
2015-07-01,Concession,5 Zones,SmartRider (25% Discount),2.4
2015-07-01,Concession,6 Zones,Cash,3.6
2015-07-01,Concession,6 Zones,SmartRider (15% Discount),3.06
2015-07-01,Concession,6 Zones,SmartRider (25% Discount),2.7
2015-07-01,Concession,7 Zones,Cash,4.2
2015-07-01,Concession,7 Zones,SmartRider (15% Discount),3.57
2015-07-01,Concession,7 Zones,SmartRider (25% Discount),3.15
2015-07-01,Concession,8 Zones,Cash,4.5
2015-07-01,Concession,8 Zones,SmartRider (15% Discount),3.83
2015-07-01,Concession,8 Zones,SmartRider (25% Discount),3.38
2015-07-01,Concession,9 Zones,Cash,4.8
2015-07-01,Concession,9 Zones,SmartRider (15% Discount),4.08
2015-07-01,Concession,9 Zones,SmartRider (25% Discount),3.6
2015-07-01,Concession,DayRider,Cash,4.8
2015-07-01,Concession,DayRider,SmartRider (15% Discount),3.6
2015-07-01,Concession,DayRider,SmartRider (25% Discount),3.6
2015-07-01,Student,Student,SmartRider,0.6
2016-07-01,Standard,2 Sections,Cash,2.1
2016-07-01,Standard,2 Sections,SmartRider (15% Discount),1.79
2016-07-01,Standard,2 Sections,SmartRider (25% Discount),1.58
2016-07-01,Standard,1 Zone,Cash,3
2016-07-01,Standard,1 Zone,SmartRider (15% Discount),2.55
2016-07-01,Standard,1 Zone,SmartRider (25% Discount),2.25
2016-07-01,Standard,2 Zones,Cash,4.6
2016-07-01,Standard,2 Zones,SmartRider (15% Discount),3.91
2016-07-01,Standard,2 Zones,SmartRider (25% Discount),3.45
2016-07-01,Standard,3 Zones,Cash,5.5
2016-07-01,Standard,3 Zones,SmartRider (15% Discount),4.68
2016-07-01,Standard,3 Zones,SmartRider (25% Discount),4.13
2016-07-01,Standard,4 Zones,Cash,6.5
2016-07-01,Standard,4 Zones,SmartRider (15% Discount),5.53
2016-07-01,Standard,4 Zones,SmartRider (25% Discount),4.88
2016-07-01,Standard,5 Zones,Cash,8.1
2016-07-01,Standard,5 Zones,SmartRider (15% Discount),6.89
2016-07-01,Standard,5 Zones,SmartRider (25% Discount),6.08
2016-07-01,Standard,6 Zones,Cash,9.1
2016-07-01,Standard,6 Zones,SmartRider (15% Discount),7.74
2016-07-01,Standard,6 Zones,SmartRider (25% Discount),6.83
2016-07-01,Standard,7 Zones,Cash,10.7
2016-07-01,Standard,7 Zones,SmartRider (15% Discount),9.1
2016-07-01,Standard,7 Zones,SmartRider (25% Discount),8.03
2016-07-01,Standard,8 Zones,Cash,11.6
2016-07-01,Standard,8 Zones,SmartRider (15% Discount),9.86
2016-07-01,Standard,8 Zones,SmartRider (25% Discount),8.7
2016-07-01,Standard,9 Zones,Cash,12.4
2016-07-01,Standard,9 Zones,SmartRider (15% Discount),10.54
2016-07-01,Standard,9 Zones,SmartRider (25% Discount),9.3
2016-07-01,Standard,DayRider,Cash,12.4
2016-07-01,Standard,FamilyRider,Cash,12.4
2016-07-01,Concession,2 Sections,Cash,0.8
2016-07-01,Concession,2 Sections,SmartRider (15% Discount),0.68
2016-07-01,Concession,2 Sections,SmartRider (25% Discount),0.6
2016-07-01,Concession,1 Zone,Cash,1.2
2016-07-01,Concession,1 Zone,SmartRider (15% Discount),1.02
2016-07-01,Concession,1 Zone,SmartRider (25% Discount),0.9
2016-07-01,Concession,2 Zones,Cash,1.9
2016-07-01,Concession,2 Zones,SmartRider (15% Discount),1.62
2016-07-01,Concession,2 Zones,SmartRider (25% Discount),1.43
2016-07-01,Concession,3 Zones,Cash,2.2
2016-07-01,Concession,3 Zones,SmartRider (15% Discount),1.87
2016-07-01,Concession,3 Zones,SmartRider (25% Discount),1.65
2016-07-01,Concession,4 Zones,Cash,2.6
2016-07-01,Concession,4 Zones,SmartRider (15% Discount),2.21
2016-07-01,Concession,4 Zones,SmartRider (25% Discount),1.95
2016-07-01,Concession,5 Zones,Cash,3.2
2016-07-01,Concession,5 Zones,SmartRider (15% Discount),2.72
2016-07-01,Concession,5 Zones,SmartRider (25% Discount),2.4
2016-07-01,Concession,6 Zones,Cash,3.7
2016-07-01,Concession,6 Zones,SmartRider (15% Discount),3.15
2016-07-01,Concession,6 Zones,SmartRider (25% Discount),2.78
2016-07-01,Concession,7 Zones,Cash,4.3
2016-07-01,Concession,7 Zones,SmartRider (15% Discount),3.66
2016-07-01,Concession,7 Zones,SmartRider (25% Discount),3.23
2016-07-01,Concession,8 Zones,Cash,4.6
2016-07-01,Concession,8 Zones,SmartRider (15% Discount),3.91
2016-07-01,Concession,8 Zones,SmartRider (25% Discount),3.45
2016-07-01,Concession,9 Zones,Cash,5
2016-07-01,Concession,9 Zones,SmartRider (15% Discount),4.25
2016-07-01,Concession,9 Zones,SmartRider (25% Discount),3.75
2016-07-01,Concession,DayRider,Cash,5
2016-07-01,Concession,DayRider,SmartRider (15% Discount),3.75
2016-07-01,Concession,DayRider,SmartRider (25% Discount),3.75
2016-07-01,Student,Student,SmartRider,0.6
2017-07-01,Standard,2 Sections,Cash,2.2
2017-07-01,Standard,2 Sections,SmartRider (10% Discount),1.98
2017-07-01,Standard,2 Sections,SmartRider (20% Discount),1.76
2017-07-01,Standard,1 Zone,Cash,3.1
2017-07-01,Standard,1 Zone,SmartRider (10% Discount),2.79
2017-07-01,Standard,1 Zone,SmartRider (20% Discount),2.48
2017-07-01,Standard,2 Zones,Cash,4.7
2017-07-01,Standard,2 Zones,SmartRider (10% Discount),4.23
2017-07-01,Standard,2 Zones,SmartRider (20% Discount),3.76
2017-07-01,Standard,3 Zones,Cash,5.6
2017-07-01,Standard,3 Zones,SmartRider (10% Discount),5.04
2017-07-01,Standard,3 Zones,SmartRider (20% Discount),4.48
2017-07-01,Standard,4 Zones,Cash,6.6
2017-07-01,Standard,4 Zones,SmartRider (10% Discount),5.94
2017-07-01,Standard,4 Zones,SmartRider (20% Discount),5.28
2017-07-01,Standard,5 Zones,Cash,8.2
2017-07-01,Standard,5 Zones,SmartRider (10% Discount),7.38
2017-07-01,Standard,5 Zones,SmartRider (20% Discount),6.56
2017-07-01,Standard,6 Zones,Cash,9.3
2017-07-01,Standard,6 Zones,SmartRider (10% Discount),8.37
2017-07-01,Standard,6 Zones,SmartRider (20% Discount),7.44
2017-07-01,Standard,7 Zones,Cash,10.9
2017-07-01,Standard,7 Zones,SmartRider (10% Discount),9.81
2017-07-01,Standard,7 Zones,SmartRider (20% Discount),8.72
2017-07-01,Standard,8 Zones,Cash,11.8
2017-07-01,Standard,8 Zones,SmartRider (10% Discount),10.62
2017-07-01,Standard,8 Zones,SmartRider (20% Discount),9.44
2017-07-01,Standard,9 Zones,Cash,12.6
2017-07-01,Standard,9 Zones,SmartRider (10% Discount),11.34
2017-07-01,Standard,9 Zones,SmartRider (20% Discount),10.08
2017-07-01,Standard,DayRider,Cash,12.6
2017-07-01,Standard,FamilyRider,Cash,12.6
2017-07-01,Concession,2 Sections,Cash,0.9
2017-07-01,Concession,2 Sections,SmartRider (10% Discount),0.81
2017-07-01,Concession,2 Sections,SmartRider (20% Discount),0.72
2017-07-01,Concession,1 Zone,Cash,1.3
2017-07-01,Concession,1 Zone,SmartRider (10% Discount),1.17
2017-07-01,Concession,1 Zone,SmartRider (20% Discount),1.04
2017-07-01,Concession,2 Zones,Cash,1.9
2017-07-01,Concession,2 Zones,SmartRider (10% Discount),1.71
2017-07-01,Concession,2 Zones,SmartRider (20% Discount),1.52
2017-07-01,Concession,3 Zones,Cash,2.3
2017-07-01,Concession,3 Zones,SmartRider (10% Discount),2.07
2017-07-01,Concession,3 Zones,SmartRider (20% Discount),1.84
2017-07-01,Concession,4 Zones,Cash,2.7
2017-07-01,Concession,4 Zones,SmartRider (10% Discount),2.43
2017-07-01,Concession,4 Zones,SmartRider (20% Discount),2.16
2017-07-01,Concession,5 Zones,Cash,3.4
2017-07-01,Concession,5 Zones,SmartRider (10% Discount),3.06
2017-07-01,Concession,5 Zones,SmartRider (20% Discount),2.72
2017-07-01,Concession,6 Zones,Cash,3.8
2017-07-01,Concession,6 Zones,SmartRider (10% Discount),3.42
2017-07-01,Concession,6 Zones,SmartRider (20% Discount),3.04
2017-07-01,Concession,7 Zones,Cash,4.5
2017-07-01,Concession,7 Zones,SmartRider (10% Discount),4.05
2017-07-01,Concession,7 Zones,SmartRider (20% Discount),3.6
2017-07-01,Concession,8 Zones,Cash,4.8
2017-07-01,Concession,8 Zones,SmartRider (10% Discount),4.32
2017-07-01,Concession,8 Zones,SmartRider (20% Discount),3.84
2017-07-01,Concession,9 Zones,Cash,5.2
2017-07-01,Concession,9 Zones,SmartRider (10% Discount),4.68
2017-07-01,Concession,9 Zones,SmartRider (20% Discount),4.16
2017-07-01,Concession,DayRider,Cash,5.2
2017-07-01,Concession,DayRider,SmartRider (10% Discount),4.16
2017-07-01,Concession,DayRider,SmartRider (20% Discount),4.16
2017-07-01,Student,Student,SmartRider,0.7
2018-07-01,Standard,2 Sections,Cash,2.2
2018-07-01,Standard,2 Sections,SmartRider (10% Discount),1.98
2018-07-01,Standard,2 Sections,SmartRider (20% Discount),1.76
2018-07-01,Standard,1 Zone,Cash,3.1
2018-07-01,Standard,1 Zone,SmartRider (10% Discount),2.79
2018-07-01,Standard,1 Zone,SmartRider (20% Discount),2.48
2018-07-01,Standard,2 Zones,Cash,4.8
2018-07-01,Standard,2 Zones,SmartRider (10% Discount),4.32
2018-07-01,Standard,2 Zones,SmartRider (20% Discount),3.84
2018-07-01,Standard,3 Zones,Cash,5.6
2018-07-01,Standard,3 Zones,SmartRider (10% Discount),5.04
2018-07-01,Standard,3 Zones,SmartRider (20% Discount),4.48
2018-07-01,Standard,4 Zones,Cash,6.7
2018-07-01,Standard,4 Zones,SmartRider (10% Discount),6.03
2018-07-01,Standard,4 Zones,SmartRider (20% Discount),5.36
2018-07-01,Standard,5 Zones,Cash,8.4
2018-07-01,Standard,5 Zones,SmartRider (10% Discount),7.56
2018-07-01,Standard,5 Zones,SmartRider (20% Discount),6.72
2018-07-01,Standard,6 Zones,Cash,9.4
2018-07-01,Standard,6 Zones,SmartRider (10% Discount),8.46
2018-07-01,Standard,6 Zones,SmartRider (20% Discount),7.52
2018-07-01,Standard,7 Zones,Cash,11.1
2018-07-01,Standard,7 Zones,SmartRider (10% Discount),9.99
2018-07-01,Standard,7 Zones,SmartRider (20% Discount),8.88
2018-07-01,Standard,8 Zones,Cash,11.9
2018-07-01,Standard,8 Zones,SmartRider (10% Discount),10.71
2018-07-01,Standard,8 Zones,SmartRider (20% Discount),9.52
2018-07-01,Standard,9 Zones,Cash,12.8
2018-07-01,Standard,9 Zones,SmartRider (10% Discount),11.52
2018-07-01,Standard,9 Zones,SmartRider (20% Discount),10.24
2018-07-01,Standard,DayRider,Cash,12.8
2018-07-01,Standard,FamilyRider,Cash,12.8
2018-07-01,Concession,2 Sections,Cash,0.9
2018-07-01,Concession,2 Sections,SmartRider (10% Discount),0.81
2018-07-01,Concession,2 Sections,SmartRider (20% Discount),0.72
2018-07-01,Concession,1 Zone,Cash,1.3
2018-07-01,Concession,1 Zone,SmartRider (10% Discount),1.17
2018-07-01,Concession,1 Zone,SmartRider (20% Discount),1.04
2018-07-01,Concession,2 Zones,Cash,2
2018-07-01,Concession,2 Zones,SmartRider (10% Discount),1.8
2018-07-01,Concession,2 Zones,SmartRider (20% Discount),1.6
2018-07-01,Concession,3 Zones,Cash,2.4
2018-07-01,Concession,3 Zones,SmartRider (10% Discount),2.16
2018-07-01,Concession,3 Zones,SmartRider (20% Discount),1.92
2018-07-01,Concession,4 Zones,Cash,2.8
2018-07-01,Concession,4 Zones,SmartRider (10% Discount),2.52
2018-07-01,Concession,4 Zones,SmartRider (20% Discount),2.24
2018-07-01,Concession,5 Zones,Cash,3.5
2018-07-01,Concession,5 Zones,SmartRider (10% Discount),3.15
2018-07-01,Concession,5 Zones,SmartRider (20% Discount),2.8
2018-07-01,Concession,6 Zones,Cash,4
2018-07-01,Concession,6 Zones,SmartRider (10% Discount),3.6
2018-07-01,Concession,6 Zones,SmartRider (20% Discount),3.2
2018-07-01,Concession,7 Zones,Cash,4.7
2018-07-01,Concession,7 Zones,SmartRider (10% Discount),4.23
2018-07-01,Concession,7 Zones,SmartRider (20% Discount),3.76
2018-07-01,Concession,8 Zones,Cash,5
2018-07-01,Concession,8 Zones,SmartRider (10% Discount),4.5
2018-07-01,Concession,8 Zones,SmartRider (20% Discount),4
2018-07-01,Concession,9 Zones,Cash,5.4
2018-07-01,Concession,9 Zones,SmartRider (10% Discount),4.86
2018-07-01,Concession,9 Zones,SmartRider (20% Discount),4.32
2018-07-01,Concession,DayRider,Cash,5.4
2018-07-01,Concession,DayRider,SmartRider (10% Discount),4.32
2018-07-01,Concession,DayRider,SmartRider (20% Discount),4.32
2018-07-01,Student,Student,SmartRider,0.7
2019-07-01,Standard,2 Sections,Cash,2.2
2019-07-01,Standard,2 Sections,SmartRider (10% Discount),1.98
2019-07-01,Standard,2 Sections,SmartRider (20% Discount),1.76
2019-07-01,Standard,1 Zone,Cash,3.2
2019-07-01,Standard,1 Zone,SmartRider (10% Discount),2.88
2019-07-01,Standard,1 Zone,SmartRider (20% Discount),2.56
2019-07-01,Standard,2 Zones,Cash,4.9
2019-07-01,Standard,2 Zones,SmartRider (10% Discount),4.41
2019-07-01,Standard,2 Zones,SmartRider (20% Discount),3.92
2019-07-01,Standard,3 Zones,Cash,5.8
2019-07-01,Standard,3 Zones,SmartRider (10% Discount),5.22
2019-07-01,Standard,3 Zones,SmartRider (20% Discount),4.64
2019-07-01,Standard,4 Zones,Cash,6.9
2019-07-01,Standard,4 Zones,SmartRider (10% Discount),6.21
2019-07-01,Standard,4 Zones,SmartRider (20% Discount),5.52
2019-07-01,Standard,5 Zones,Cash,8.5
2019-07-01,Standard,5 Zones,SmartRider (10% Discount),7.65
2019-07-01,Standard,5 Zones,SmartRider (20% Discount),6.8
2019-07-01,Standard,6 Zones,Cash,9.6
2019-07-01,Standard,6 Zones,SmartRider (10% Discount),8.64
2019-07-01,Standard,6 Zones,SmartRider (20% Discount),7.68
2019-07-01,Standard,7 Zones,Cash,11.3
2019-07-01,Standard,7 Zones,SmartRider (10% Discount),10.17
2019-07-01,Standard,7 Zones,SmartRider (20% Discount),9.04
2019-07-01,Standard,8 Zones,Cash,12.2
2019-07-01,Standard,8 Zones,SmartRider (10% Discount),10.98
2019-07-01,Standard,8 Zones,SmartRider (20% Discount),9.76
2019-07-01,Standard,9 Zones,Cash,13.1
2019-07-01,Standard,9 Zones,SmartRider (10% Discount),11.79
2019-07-01,Standard,9 Zones,SmartRider (20% Discount),10.48
2019-07-01,Standard,DayRider,Cash,13.1
2019-07-01,Standard,DayRider,SmartRider (10% Discount),13.1
2019-07-01,Standard,DayRider,SmartRider (20% Discount),13.1
2019-07-01,Standard,FamilyRider,Cash,13.1
2019-07-01,Concession,2 Sections,Cash,1
2019-07-01,Concession,2 Sections,SmartRider (10% Discount),0.9
2019-07-01,Concession,2 Sections,SmartRider (20% Discount),0.8
2019-07-01,Concession,1 Zone,Cash,1.4
2019-07-01,Concession,1 Zone,SmartRider (10% Discount),1.26
2019-07-01,Concession,1 Zone,SmartRider (20% Discount),1.12
2019-07-01,Concession,2 Zones,Cash,2.1
2019-07-01,Concession,2 Zones,SmartRider (10% Discount),1.89
2019-07-01,Concession,2 Zones,SmartRider (20% Discount),1.68
2019-07-01,Concession,3 Zones,Cash,2.5
2019-07-01,Concession,3 Zones,SmartRider (10% Discount),2.25
2019-07-01,Concession,3 Zones,SmartRider (20% Discount),2
2019-07-01,Concession,4 Zones,Cash,3
2019-07-01,Concession,4 Zones,SmartRider (10% Discount),2.7
2019-07-01,Concession,4 Zones,SmartRider (20% Discount),2.4
2019-07-01,Concession,5 Zones,Cash,3.7
2019-07-01,Concession,5 Zones,SmartRider (10% Discount),3.33
2019-07-01,Concession,5 Zones,SmartRider (20% Discount),2.96
2019-07-01,Concession,6 Zones,Cash,4.1
2019-07-01,Concession,6 Zones,SmartRider (10% Discount),3.69
2019-07-01,Concession,6 Zones,SmartRider (20% Discount),3.28
2019-07-01,Concession,7 Zones,Cash,4.9
2019-07-01,Concession,7 Zones,SmartRider (10% Discount),4.41
2019-07-01,Concession,7 Zones,SmartRider (20% Discount),3.92
2019-07-01,Concession,8 Zones,Cash,5.2
2019-07-01,Concession,8 Zones,SmartRider (10% Discount),4.68
2019-07-01,Concession,8 Zones,SmartRider (20% Discount),4.16
2019-07-01,Concession,9 Zones,Cash,5.6
2019-07-01,Concession,9 Zones,SmartRider (10% Discount),5.04
2019-07-01,Concession,9 Zones,SmartRider (20% Discount),4.48
2019-07-01,Concession,DayRider,Cash,5.6
2019-07-01,Concession,DayRider,SmartRider (10% Discount),4.48
2019-07-01,Concession,DayRider,SmartRider (20% Discount),4.48
2019-07-01,Student,Student,SmartRider,0.7
2022-07-01,Standard,2 Sections,Cash,2.2
2022-07-01,Standard,2 Sections,SmartRider (10% Discount),1.98
2022-07-01,Standard,2 Sections,SmartRider (20% Discount),1.76
2022-07-01,Standard,1 Zone,Cash,3.2
2022-07-01,Standard,1 Zone,SmartRider (10% Discount),2.88
2022-07-01,Standard,1 Zone,SmartRider (20% Discount),2.56
2022-07-01,Standard,2 Zones,Cash,4.9
2022-07-01,Standard,2 Zones,SmartRider (10% Discount),4.41
2022-07-01,Standard,2 Zones,SmartRider (20% Discount),3.92
2022-07-01,Standard,DayRider,Cash,9.8
2022-07-01,Standard,DayRider,SmartRider (10% Discount),9.8
2022-07-01,Standard,DayRider,SmartRider (20% Discount),9.8
2022-07-01,Standard,FamilyRider,Cash,9.8
2022-07-01,Concession,2 Sections,Cash,1
2022-07-01,Concession,2 Sections,SmartRider (10% Discount),0.9
2022-07-01,Concession,2 Sections,SmartRider (20% Discount),0.8
2022-07-01,Concession,1 Zone,Cash,1.4
2022-07-01,Concession,1 Zone,SmartRider (10% Discount),1.26
2022-07-01,Concession,1 Zone,SmartRider (20% Discount),1.12
2022-07-01,Concession,2 Zones,Cash,2.1
2022-07-01,Concession,2 Zones,SmartRider (10% Discount),1.89
2022-07-01,Concession,2 Zones,SmartRider (20% Discount),1.68
2022-07-01,Concession,DayRider,Cash,4.2
2022-07-01,Concession,DayRider,SmartRider (10% Discount),4.2
2022-07-01,Concession,DayRider,SmartRider (20% Discount),4.2
2022-07-01,Student,Student,SmartRider,0.7
